{
 "creation": "2020-07-29 14:06:52.406087",
 "doctype": "DocType",
 "editable_grid": 1,
 "engine": "InnoDB",
 "field_order": [
  "emails"
 ],
 "fields": [
  {
   "fieldname": "emails",
   "fieldtype": "Table",
   "label": "Emails",
   "options": "Portal Feedback Settings Email"
  }
 ],
 "issingle": 1,
 "modified": "2020-07-29 14:06:52.406087",
 "modified_by": "Administrator",
 "module": "Client Portal",
 "name": "Portal Feedback Settings",
 "owner": "Administrator",
 "permissions": [
  {
   "create": 1,
   "delete": 1,
   "email": 1,
   "print": 1,
   "read": 1,
   "role": "System Manager",
   "share": 1,
   "write": 1
  }
 ],
 "quick_entry": 1,
 "sort_field": "modified",
 "sort_order": "DESC",
 "track_changes": 1
}
