{
 "creation": "2020-06-30 22:37:22.109036",
 "doctype": "DocType",
 "editable_grid": 1,
 "engine": "InnoDB",
 "field_order": [
  "fieldname",
  "label",
  "options",
  "fieldtype",
  "read_only",
  "reqd"
 ],
 "fields": [
  {
   "fieldname": "fieldname",
   "fieldtype": "Data",
   "in_list_view": 1,
   "label": "Fieldname",
   "read_only": 1
  },
  {
   "fieldname": "label",
   "fieldtype": "Data",
   "in_list_view": 1,
   "label": "Label"
  },
  {
   "fieldname": "options",
   "fieldtype": "Data",
   "in_list_view": 1,
   "label": "Options"
  },
  {
   "fieldname": "fieldtype",
   "fieldtype": "Data",
   "in_list_view": 1,
   "label": "Fieldtype",
   "read_only": 1
  },
  {
   "fieldname": "read_only",
   "fieldtype": "Data",
   "in_list_view": 1,
   "label": "Read Only"
  },
  {
   "fieldname": "reqd",
   "fieldtype": "Data",
   "in_list_view": 1,
   "label": "Reqd"
  }
 ],
 "istable": 1,
 "modified": "2020-06-30 22:37:42.447453",
 "modified_by": "Administrator",
 "module": "Client Portal",
 "name": "Portal Form Field",
 "owner": "Administrator",
 "permissions": [],
 "quick_entry": 1,
 "sort_field": "modified",
 "sort_order": "DESC",
 "track_changes": 1
}
