<svg xmlns="http://www.w3.org/2000/svg" width="583.751" height="360.187" viewBox="0 0 583.751 360.187">
    <defs>
        <style>
            .cls-2{fill:#b6d0d8}.cls-3{fill:#fff}.cls-4{fill:#eaf6fb}.cls-5{fill:#1a375b}.cls-6{fill:#365589}.cls-8{fill:#658dbc}.cls-9{fill:#f5c0a0;stroke:#f5c0a0}.cls-11,.cls-9{stroke-miterlimit:10}.cls-11,.cls-12{fill:none;stroke:#000;stroke-width:.6px}.cls-12{stroke-linecap:round;stroke-linejoin:round}
        </style>
    </defs>
    <g id="Group_12224" transform="translate(-546.614 -311.28)">
        <g id="Group_12188" opacity="0.44" transform="translate(571.03 311.28)">
            <path id="Path_31734" d="M659.789 382.849c2.743-1.417 5.557-2.809 8.537-4.09 1.462-.664 3-1.264 4.513-1.9l4.7-1.733 4.74-1.733 4.83-1.614 4.871-1.606c.2-.072.413-.122.607-.213l.581-.271 1.167-.537 2.349-1.055q2.357-1.042 4.749-2.032c.807-.3 1.568-.754 2.354-1.131l2.346-1.187 9.458-4.793 4.772-2.426c1.6-.808 3.2-1.567 4.8-2.353l4.827-2.341c1.613-.776 3.216-1.457 4.831-2.191l4.851-2.163c1.618-.71 3.209-1.309 4.82-1.968l4.832-1.935c1.6-.617 3.172-1.124 4.765-1.691l4.771-1.656c1.574-.514 3.114-.96 4.677-1.442l4.682-1.418 4.572-1.22a304.657 304.657 0 0 1 35.082-7.016c2.84-.433 5.632-.763 8.437-1.109 2.81-.368 5.6-.631 8.407-.925l8.414-.856 8.488-.773c5.6-.468 11.5-1.1 17.317-1.681l2.187-.219 1.1-.111 1.187-.2 4.746-.782 9.495-1.555a12.855 12.855 0 0 0 1.287-.279l1.344-.327 2.687-.654 5.375-1.3 5.373-1.3c.9-.21 1.791-.451 2.687-.634l2.685-.52 10.738-2.076 2.683-.517 1.341-.259c.442-.077.843-.094 1.265-.145l5.014-.508 10.02-1.011.626-.062c.2-.012.382 0 .574-.008h1.138l2.275-.008 4.548-.014 4.546-.014h2.268l2.039.18 8.152.722 2.037.18a19.487 19.487 0 0 1 1.969.22l3.617.629 7.228 1.254c.294.055.617.1.887.162l.8.2 1.592.4 3.184.8 3.184.794 1.591.4c.524.134.946.291 1.424.435l5.571 1.737c.919.292 1.883.581 2.767.875l2.432.894 4.867 1.779.609.221c.2.074.359.144.54.215l1.053.428 2.105.853 4.12 1.666 3.659 1.516 3.417 1.386 3.169 1.253c2.049.8 3.79 1.424 5.506 2.008 1.7.578 3.311 1.088 4.9 1.589 3.177 1 6.306 1.988 9.751 3.384 1.722.7 3.511 1.492 5.381 2.459s3.842 2.1 5.888 3.394a72.706 72.706 0 0 1 6.316 4.479 85.112 85.112 0 0 1 6.662 5.8c2.234 2.191 4.52 4.613 6.78 7.309 1.109 1.4 2.24 2.7 3.328 4.222l1.647 2.205 1.6 2.322c.653.922 1.3 1.848 1.911 2.843l1.849 2.942c1.175 2.039 2.384 4.053 3.449 6.195 1.127 2.093 2.115 4.292 3.152 6.462.944 2.219 1.935 4.425 2.775 6.7.9 2.254 1.681 4.55 2.483 6.848.385 1.153.726 2.319 1.089 3.481s.705 2.33 1.025 3.5c1.354 4.683 2.434 9.442 3.372 14.239a201.164 201.164 0 0 1 3.508 29.087l.11 3.605.036 3.559-.06 3.491c-.045 1.128-.06 2.3-.129 3.393-.221 4.443-.665 8.532-1.112 11.75-.057.393-.111.844-.168 1.19l-.172 1.061-.323 1.939-.514 2.834-.613 3.164c-.293 1.584-.555 3.15-.818 4.693-.527 3.086-1.008 6.094-1.623 8.935-.3 1.43-.555 2.777-.887 4.136a28.084 28.084 0 0 1-.819 2.707c-.2.58-.49 1.332-.828 2.162l-.554 1.427-.325.821-.167.418-.2.474-.406.948-.495 1.075-.252.545-.126.273-.155.31-.627 1.245-.324.637-.373.707-.746 1.415-.832 1.588-.42.8-.216.4-.257.442-1.03 1.771c-.367.607-.807 1.27-1.207 1.9l-1.283 2c-.456.7-.873 1.36-1.365 2.086l-1.514 2.2-.384.551-.447.578-.893 1.156c-1.143 1.508-2.518 3.177-3.808 4.783a141.3 141.3 0 0 1-9.83 10.3c-.951.882-2.029 1.767-3.039 2.65-.517.442-1.014.883-1.549 1.326l-1.675 1.331-1.676 1.331c-.565.443-1.09.89-1.742 1.325l-3.742 2.626c-.321.218-.6.441-.956.653l-1.035.641-2.07 1.282-2.07 1.281c-.7.424-1.5.827-2.246 1.241-1.529.82-3 1.656-4.577 2.461l-5.011 2.331-1.253.583c-.413.2-.909.362-1.359.544l-2.765 1.071a59.27 59.27 0 0 1-5.75 2.053l-6.172 1.881-1.543.47a7.671 7.671 0 0 1-.83.208l-.867.191-3.469.764c-2.322.5-4.6 1.031-6.957 1.514l-7.416 1.211c-4.975.851-9.807 1.5-14.694 2.222-2.465.375-4.8.653-7.194.974l-7.134.931-6.936.813-3.469.406c-1.17.142-2.247.24-3.376.362l-6.7.7-1.674.174-1.608.147-3.215.293-6.39.572-6.129.486-1.532.121-.766.06-.383.03c.1.132-.793-.271-1.4-.518l-15.437-6.461-3.848-1.604c44.867 25.019-63.462-35.06-52.19-28.833l-.151-.084-.61-.328q-.615-.323-1.25-.621c-.686-.373-1.342-.709-2.055-1.018q-.529-.231-1.077-.438c-.206-.072-.3-.13-.449-.191l-.415-.177a16.235 16.235 0 0 0-1.747-.6 3.475 3.475 0 0 1-.371-.118l-.317-.106q-.321-.1-.658-.184t-.689-.147l-.174-.03-.1-.027-.212-.05a6.752 6.752 0 0 0-.917-.132l-.123-.008-.052-.008-.1-.014c-.069-.009-.141-.015-.218-.018-.136-.009-.408 0-.3 0 .021 0 .026-.006.013-.006h-.008l-1.063.131.114-.013c.074-.009.143-.021.208-.035a12.158 12.158 0 0 0 3.17-1.161 9.913 9.913 0 0 0 1.084-.595 11.982 11.982 0 0 0 1.173-.722c.361-.256.82-.54 1.187-.831s.787-.6 1.172-.921a33.488 33.488 0 0 0 4.09-4.094 25.042 25.042 0 0 0 2.339-3.241c.09-.142.171-.28.242-.413l.115-.214L855.69 530l.45-.995.213-.5.27-.6q.531-1.2.987-2.4c.393-.943.766-1.9 1.109-2.857l.252-.719.311-.839q.309-.846.6-1.7l1.212-3.692q.321-1 .619-2.012l.287-.996.352-1.159q.717-2.376 1.334-4.767l.755-2.782q.376-1.418.725-2.84c.4-1.73 1.051-4.215 1.564-6.452l1.662-7.428.227-1.043.11-.511c.008 0-.017 0 .018.006l.442.084c.461.084 1.148.208 2.229.364l1.782.254 2.109.284c-.455 3.749-3.006 8.171-4.432 12.257a15.7 15.7 0 0 0-1.1 5.744 5.277 5.277 0 0 0 2.75 4.486c1.764.889 3.313 1.754 4.6 2.572.685.422 1.238.809 1.836 1.22.529.387 1.1.8 1.557 1.178.479.387.944.778 1.343 1.153a3.44 3.44 0 0 1 .289.286 1.915 1.915 0 0 1 .246.284l.349.552 1.4 2.229c1.852 2.974 3.639 5.963 5.161 9.023a63.612 63.612 0 0 1 4.607 11.033 114.589 114.589 0 0 1 2.842 11.774c.476 2.258-1.272 3.617-3.785 4.33a23.223 23.223 0 0 1-4.611.674c-1.564.08-3.051.1-4.2.209s-1.977.352-2.215.9.108 1.425 1.4 2.76l-2.154-.052-2.344-.086c-1.668-.083-3.4-.172-5.224-.3s-3.7-.266-5.638-.425l-5.818-.471c-3.754-.3-7.128-.6-9.986-.953-1.438-.171-2.755-.349-3.941-.534-.612-.082-1.153-.189-1.712-.267-.518-.1-1.062-.171-1.531-.267-.981-.158-1.857-.347-2.559-.429-.726-.108-1.4-.2-2-.263a8.589 8.589 0 0 0-1.6-.035 2.731 2.731 0 0 0-1.179.33c-.646.382-.97 1.08-.763 2.32a10.735 10.735 0 0 0 3.124 5.074 8.355 8.355 0 0 0 2.857 3.64 21.517 21.517 0 0 0 5.558 2.979c4.457 1.716 10.223 2.738 16.165 3.741 5.908 1.021 11.735 1.967 16.627 3.127a44.974 44.974 0 0 1 6.721 2.073 16.286 16.286 0 0 1 5.1 3.111 12.822 12.822 0 0 1 2.932 3.953 10.166 10.166 0 0 1 .9 4.17c.033 2.853-.992 5.846-2.165 8.8-1.159 2.969-2.467 5.874-2.667 8.735-.191 2.84.727 5.655 4.311 8.172 1.583-.147 3.161-.347 4.737-.556a122.521 122.521 0 0 0 23.542-5.965c1.93-.7 3.6-1.321 5.306-2 .86-.332 1.68-.672 2.5-1.012s1.649-.68 2.44-1.023c3.207-1.368 6.267-2.758 9.151-4.108 6.211 1.239 6.209 7.476 5.681 12.916-.3 2.729-.7 5.249-.439 6.805.276 1.552 1.339 2.107 3.858.934 4.167-.91 7.849-1.838 11.756-3.018 3.882-1.177 7.827-2.553 11.825-4.1 8-3.086 16.209-6.836 24.582-10.976 16.749-8.28 34.128-18.117 51.814-27.276 1.649 3.376 5.473 5.624 6.921 8.575a5.449 5.449 0 0 1-.182 5.183c-1.074 2.071-3.337 4.572-7.386 7.706q-29.986 16.233-60.388 31.935l-15.226 7.813c-5.171 2.624-9.824 5.036-16.069 8.083-3.123 1.512-6.531 3.108-10.25 4.734l-2.848 1.224-2.991 1.231-1.55.615-1.636.635c-1.136.446-2.4.9-3.622 1.338a158.07 158.07 0 0 1-56.563 9.761q-1.65 0-3.3-.045l-1.65-.042-1.562-.052-2.826-.119-2.694-.149c-3.529-.216-6.836-.491-9.928-.784l-4.447-.449-4.186-.461c-2.822-.325-6.069-.73-9.747-1.3a154.273 154.273 0 0 1-27.383-6.708l-2.044-.729c-.674-.242-1.406-.532-2.105-.8l-2.115-.836c-.7-.279-1.451-.607-2.171-.915l-2.177-.953c-.723-.321-1.488-.689-2.227-1.038l-2.227-1.08c-.349-.168-.8-.4-1.2-.613l-1.238-.651a119.126 119.126 0 0 1-19.196-12.673 115.338 115.338 0 0 1-18.313-18.6 110.889 110.889 0 0 1-15.9-27.774c-.542-1.328-1.067-2.833-1.564-4.267q-.747-2.178-1.421-4.38c-.888-3.017-1.664-6.138-2.325-9.259-.623-3.2-1.168-6.49-1.52-9.68-.326-3.152-.541-6.329-.643-9.5a110.735 110.735 0 0 1 1.128-18.517q.323-2.235.719-4.455c.266-1.455.566-2.784.88-4.177q.473-2.066 1.008-4.116l.549-2.044c.187-.657.376-1.257.569-1.886.776-2.487 1.618-4.962 2.521-7.4q1.3-3.323 2.754-6.588l.732-1.615.71-1.458.724-1.45.367-.722c.171-.336.178-.347.153-.295l-.047.135.019-.077a4.217 4.217 0 0 1 .181-.567c.6-1.35 1.23-2.343 1.8-2.568a3.078 3.078 0 0 1 .629-.2c.143-.04.218-.088.228-.138.021-.1-.218-.211-.675-.3a3.253 3.253 0 0 1-.933-.34 8.187 8.187 0 0 0-1.6-.556 8.779 8.779 0 0 0-3.493-.131 9.8 9.8 0 0 0-2.724.955c-1.325.667-1.662 1.017-1.483 1.249a.551.551 0 0 0 .532.1 2.207 2.207 0 0 0 .712-.357c.215-.161.41-.256.422-.43s-.186-.382-.5-.369a1.079 1.079 0 0 0-.9.7 1.618 1.618 0 0 0-.133.4.183.183 0 0 0-.011.055l-.007.03c-.011-.007.022.029-.026-.014l-.109-.1-.222-.187-.226-.182-.114-.089c6.384-8.126-55.894 70.086-29.647 37.137l-.449.587-.373.468q-.369.473-.724.97c-.23.318-.49.715-.651.924-.36.494-.721 1.05-1.038 1.569-.252.377-.5.777-.726 1.2l-.252.444c-.075.136-.149.276-.221.423l-.053.111c.1-.211-.31.628.22-.442l.118-.226q.114-.226.213-.447c.067-.147.128-.293.184-.437l.082-.214.038-.106.074-.173q.307-.717.539-1.423.116-.352.213-.7c.108-.313.229-.664.33-.992q.314-1 .535-1.99l.055-.247c.016-.079.058-.211.084-.313l.172-.656q.166-.657.306-1.31t.254-1.3l.107-.65.162-.8q.328-1.654.54-3.3l.1-.82c.035-.286.045-.508.107-.879q.152-1.019.273-2.036.243-2.033.359-4.051c.009-.3.065-.765.1-1.167l.106-1.241q.1-1.24.161-2.475t.094-2.467l.023-1.233.072-1.512q.126-3.022.112-6.026l-.016-1.5-.015-.749c-.009-.226-.006-.535 0-.853q.017-1.859 0-3.712-.041-3.708-.232-7.392c-.015-.279-.039-.742-.037-.6h.017l.033.008.069.021.069.029a.166.166 0 0 0 .113.023c.9.406 3.1.786 5.02 1.293.526.118 1.036.246 1.5.393s.878.31 1.346.467a7.717 7.717 0 0 1 2.164 1.158 3.37 3.37 0 0 1 1.7 3.271 6.112 6.112 0 0 1-.643 2.1 16.871 16.871 0 0 1-1.275 2.317q-.4.605-.882 1.235c-.282.41-.58.826-.905 1.249s-.676.854-1.037 1.288q-.473.632-1.006 1.281c-.766.883-1.344 1.706-2.093 2.583l-.949 1.259c-.157.209-.344.43-.486.634l-.407.608a12.566 12.566 0 0 0-2.295 4.689 1.594 1.594 0 0 0-.07.556l-.013.278-.125 1.825-.172 1.917-.106 1.587q-.118 1.568-.312 3.155c-.33 2.3-.444 3.771-.761 5.55l-.242 1.3-.135.651-.082.512q-.172 1.022-.408 2.053c.211-.917.367-1.766.493-2.572.218-1.022.389-1.978.527-2.877s.24-1.738.323-2.541c.152-.992.274-1.925.372-2.813s.175-1.729.235-2.536l.076-1.185c.014-.3.012-.106.014-.091v.148c.011.4.028.878.057 1.36.273 1.874.791 3.863 2.976 1.8a27.3 27.3 0 0 1-1.193 9.644 40.9 40.9 0 0 1-4.577 10.106c-.258.4-.448.745-.708 1.121-.245.369-.538.753-.75 1.083q-.355.514-.779 1.034c-.228.313-.475.627-.751.944l-.394.452q-.183.21-.387.424c-.133.14-.284.29-.424.424q-.184.182-.39.367a8.166 8.166 0 0 1-.871.694 4.412 4.412 0 0 1-.984.519 3.862 3.862 0 0 1-.561.155 2.521 2.521 0 0 1-.608.1c-.211.011-.428.029-.654.03a5.683 5.683 0 0 1-.788-.144l-.211-.047c-.077-.023-.17-.069-.255-.1l-.522-.225c-.351-.15-.7-.308-1.041-.488-.7-.341-1.37-.736-2.052-1.153a34.852 34.852 0 0 1-7.659-6.838 70.986 70.986 0 0 0 6.712 8.829c.308.344.624.679.953 1s.644.66.985.968.7.666.938.856l.394.34a3.147 3.147 0 0 0 .328.268 14.989 14.989 0 0 0 2.408 1.617 6.449 6.449 0 0 1 .347 1.908 7.281 7.281 0 0 1-.111 1.972 11.536 11.536 0 0 1-1.826 4.152 39.4 39.4 0 0 1-3.384 4.212 22.79 22.79 0 0 0-3.376 4.57 38.833 38.833 0 0 1-5.28-3.42c-1.608-1.214-3.221-2.564-4.586-3.659-2.743-2.2-4.833-3.478-6.194-2.183l-10.72 10.323a72.586 72.586 0 0 0 6.961 7.525c.676.654 1.514 1.363 2.362 2.093.892.733 1.814 1.472 2.791 2.182a50.2 50.2 0 0 0 19.7 8.755 66.751 66.751 0 0 0 10.894 1.389c-1.47-.086-2.932-.159-4.42-.341-.74-.084-1.464-.141-2.2-.247l-2.179-.328-1.065-.157-1.06-.206-2.057-.392c-1.342-.262-2.633-.6-3.831-.837a56.418 56.418 0 0 0-6.04-1.226c-1.572-.162-2.678.082-3.095.912l-6.687 13.466a53.279 53.279 0 0 1-12.378-7.155c-.975-.761-1.767-1.412-2.641-2.139-.708-.626-1.423-1.26-2.126-1.919-1.392-1.333-2.762-2.741-4.075-4.24-5.28-5.986-9.76-13.23-13.891-20.546a229.687 229.687 0 0 1-11.085-22c-3.179-7.238-5.726-14.287-7.942-20.686L609.586 523a75.42 75.42 0 0 0 6.128 23.607 138.9 138.9 0 0 0 13.357 23.725c2.594 3.812 5.258 7.562 8.055 11.107a125.7 125.7 0 0 0 8.714 9.987c1.5 1.545 3.041 3.007 4.579 4.415l2.325 2.047 1.431 1.189 1.513 1.235a88.833 88.833 0 0 0 13.761 8.988c-5.194-1.691-8.95-3.193-11.924-4.123a33.194 33.194 0 0 0-3.846-1.03c-.56-.107-1.1-.185-1.57-.226a6.43 6.43 0 0 0-1.328-.011c-3.239.291-5.073 2.391-7.468 5.26-9.584-7.318-17.146-17.065-23.547-27.466-3.216-5.2-6.246-10.507-8.991-15.936a171.729 171.729 0 0 1-7.348-16.633 159.2 159.2 0 0 1-5.466-17.261 174.5 174.5 0 0 1-3.509-17.774 296.935 296.935 0 0 1-2.643-36.653 122.693 122.693 0 0 0-.134 49.669 40.21 40.21 0 0 1-7.464-13.813 67.4 67.4 0 0 1-3.119-19.01c-.418-13.983 2.962-30.124 10.069-45.271a126.313 126.313 0 0 1 29.935-40.1c.764-.68 1.506-1.375 2.277-2.035l2.324-1.949 1.152-.97 1.177-.933c.78-.624 1.56-1.241 2.356-1.836 3.157-2.407 6.373-4.66 9.62-6.8 6.481-4.283 13.198-8.086 19.787-11.55z" class="cls-2" transform="translate(-581.057 -311.28)"/>
        </g>
        <path id="Path_31735" d="M821.09 402.817s14.455-18.665 16.519-38.627c1.224-11.843-.37-29.092-1.674-46.846l142.861-.339-.284 19.544h19.828s.284 25.238 3.052 36.155a71.619 71.619 0 0 0 15.247 29.244s-75.612 2.921-101.4 2.5-94.149-1.631-94.149-1.631z" class="cls-3" transform="translate(-79.906 -1.667)"/>
        <g id="Group_12191" transform="translate(583.649 317.979)">
            <path id="Path_31736" d="M1278.859 656.683h-13.2a32.782 32.782 0 0 0-32.744 32.744v13.2a32.782 32.782 0 0 0 32.744 32.745h13.2a32.782 32.782 0 0 0 32.741-32.742v-13.2a32.782 32.782 0 0 0-32.741-32.747z" class="cls-4" transform="translate(-783.447 -418.534)"/>
            <g id="Group_12189" transform="translate(121.055 258.055)">
                <path id="Path_31737" d="M788.242 690.115l7.035-.033v-3.828l-7.035.033z" class="cls-3" transform="translate(-775.047 -685.197)"/>
                <path id="Path_31738" d="M826.854 689.948l7.048-.027v-3.828l-7.049.027z" class="cls-3" transform="translate(-786.288 -685.151)"/>
                <path id="Path_31739" d="M845.464 689.868l7.035-.027v-3.828l-7.035.027z" class="cls-3" transform="translate(-791.706 -685.128)"/>
                <path id="Path_31740" d="M903.956 689.618l7.06-.027v-3.828l-7.06.027z" class="cls-3" transform="translate(-808.734 -685.055)"/>
                <path id="Path_31741" d="M884.071 689.705l7.052-.033v-3.828l-7.052.033z" class="cls-3" transform="translate(-802.945 -685.078)"/>
                <path id="Path_31742" d="M1001.871 689.2l7.059-.027v-3.828l-7.059.027z" class="cls-3" transform="translate(-837.24 -684.932)"/>
                <path id="Path_31743" d="M1021.765 689.115l7.05-.033v-3.828l-7.051.033z" class="cls-3" transform="translate(-843.031 -684.906)"/>
                <path id="Path_31744" d="M963.273 689.365l7.025-.033V685.5l-7.025.033z" class="cls-3" transform="translate(-826.003 -684.979)"/>
                <path id="Path_31745" d="M942.6 689.455l7.025-.033v-3.828l-7.025.033z" class="cls-3" transform="translate(-819.986 -685.005)"/>
                <path id="Path_31746" d="M769.629 690.2l7.045-.033v-3.828l-7.045.033z" class="cls-3" transform="translate(-769.629 -685.221)"/>
                <path id="Path_31747" d="M1060.4 688.948l7.035-.027v-3.828l-7.035.027z" class="cls-3" transform="translate(-854.279 -684.86)"/>
                <path id="Path_31748" d="M1079 688.868l7.042-.027v-3.828l-7.042.027z" class="cls-3" transform="translate(-859.694 -684.836)"/>
                <path id="Path_31749" d="M1117.621 688.705l7.035-.033v-3.828l-7.035.033z" class="cls-3" transform="translate(-870.937 -684.787)"/>
                <path id="Path_31750" d="M1136.219 688.625l7.039-.033v-3.828l-7.039.033z" class="cls-3" transform="translate(-876.352 -684.764)"/>
            </g>
            <g id="Group_12190" transform="translate(121.763 259.473)">
                <path id="Path_31751" d="M789.242 692.115l7.035-.033v-3.828l-7.035.033z" class="cls-5" transform="translate(-776.048 -687.198)"/>
                <path id="Path_31752" d="M827.854 691.948l7.048-.027v-3.828l-7.049.027z" class="cls-5" transform="translate(-787.288 -687.151)"/>
                <path id="Path_31753" d="M846.464 691.868l7.035-.027v-3.828l-7.035.027z" class="cls-5" transform="translate(-792.706 -687.128)"/>
                <path id="Path_31754" d="M904.956 691.618l7.06-.027v-3.828l-7.06.027z" class="cls-5" transform="translate(-809.735 -687.055)"/>
                <path id="Path_31755" d="M885.071 691.705l7.052-.033v-3.828l-7.052.033z" class="cls-5" transform="translate(-803.945 -687.078)"/>
                <path id="Path_31756" d="M1002.871 691.2l7.059-.027v-3.828l-7.059.027z" class="cls-5" transform="translate(-838.24 -686.932)"/>
                <path id="Path_31757" d="M1022.765 691.115l7.05-.033v-3.828l-7.051.033z" class="cls-5" transform="translate(-844.031 -686.906)"/>
                <path id="Path_31758" d="M964.273 691.365l7.025-.033V687.5l-7.025.033z" class="cls-5" transform="translate(-827.003 -686.979)"/>
                <path id="Path_31759" d="M943.6 691.455l7.025-.033v-3.828l-7.025.033z" class="cls-5" transform="translate(-820.986 -687.005)"/>
                <path id="Path_31760" d="M770.629 692.2l7.045-.033v-3.828l-7.045.033z" class="cls-5" transform="translate(-770.629 -687.221)"/>
                <path id="Path_31761" d="M1061.4 690.948l7.035-.027v-3.828l-7.035.027z" class="cls-5" transform="translate(-855.279 -686.86)"/>
                <path id="Path_31762" d="M1080 690.868l7.042-.027v-3.828l-7.042.027z" class="cls-5" transform="translate(-860.694 -686.836)"/>
                <path id="Path_31763" d="M1118.621 690.705l7.035-.033v-3.828l-7.035.033z" class="cls-5" transform="translate(-871.937 -686.787)"/>
                <path id="Path_31764" d="M1137.219 690.625l7.039-.033v-3.828l-7.039.033z" class="cls-5" transform="translate(-877.352 -686.764)"/>
            </g>
            <path id="Path_31765" d="M893.923 562.81q-7.539 0-14.574.039l-23.362 62.008v91.87h10.266l2.4-14a.207.207 0 0 1 .224-.176.214.214 0 0 1 .2.2l.554 13.973h1.074a4.771 4.771 0 0 0 4.765-4.766v-87.139l8.066-33.875a.213.213 0 0 1 .414.1l-8.06 33.825v24.766l7.053-.033v-24.787l12.24-62z" class="cls-4" transform="translate(-673.715 -391.205)"/>
            <path id="Path_31766" d="M906.865 562.812l-12.252 62.045v50.492l6.195.663v-51.2l9.992-62h-3.935z" class="cls-2" transform="translate(-684.96 -391.206)"/>
            <path id="Path_31767" d="M820.305 563.562l-24.337 46.6a68.317 68.317 0 0 0-7.726 31.486v8.366l7.035-.033v-9.17a70.271 70.271 0 0 1 6.923-30.32l18.753-38.923a.213.213 0 0 1 .383.184l-18.753 38.924a69.846 69.846 0 0 0-6.883 30.134v47.669a4.771 4.771 0 0 0 4.565 4.761l.369-6.883a.214.214 0 0 1 .175-.2.211.211 0 0 1 .233.125l3 6.976 11.15 1.374v-69.725a.2.2 0 0 1 .017-.084l26.485-61.709c-7.472.107-14.565.256-21.389.448z" class="cls-4" transform="translate(-653.993 -391.294)"/>
            <path id="Path_31768" d="M991.188 563.223l7.572 61.69v24.48l7.059-.026v-24.431l-3.972-24.621.42-.067 3.975 24.654v50.546h6.2v-50.512l-12.182-61.666q-4.55-.02-9.072-.047z" class="cls-2" transform="translate(-713.075 -391.325)"/>
            <path id="Path_31769" d="M969.607 563.085h-.579l3.371 61.8v67.722l8.33-.676.862-6.917a.213.213 0 0 1 .417-.028l1.645 6.208 8.233-.678V624.9l-7.577-61.719c-4.943-.031-9.853-.064-14.702-.096z" class="cls-4" transform="translate(-706.624 -391.284)"/>
            <path id="Path_31770" d="M962.123 563.037l-8.167-.054-.844 61.886v49.7l6.778.785v-50.488l-1.24-45.471.425-.011 1.24 45.476v24.583l7.025-.033v-24.541l-3.371-61.82z" class="cls-2" transform="translate(-701.991 -391.256)"/>
            <path id="Path_31771" d="M913.954 562.819l-10 62.033v24.721l7.06-.026v-24.725l5.9-48.074.422.051-5.9 48.048v77.641l19.487 1.387v-79.053l1.052-25.733.425.018-1.053 25.724v24.629l7.025-.033v-24.609l.844-61.886c-8.303-.052-16.753-.097-25.262-.113z" class="cls-4" transform="translate(-687.679 -391.208)"/>
            <path id="Rectangle_785" d="M0 0H6.777V6.133H0z" class="cls-2" transform="translate(373.72 296.994)"/>
            <path id="Path_31772" d="M843.625 761.286l-6.777 1.334v20.28l6.777-1.334z" class="cls-2" transform="translate(-668.143 -448.986)"/>
            <path id="Path_31773" d="M843.625 732.5l-6.777-.667v6.088l6.777-.667z" class="cls-2" transform="translate(-668.143 -440.411)"/>
            <path id="Path_31774" d="M900.893 741.093l-6.777-1.334v6.125l6.777 1.334z" class="cls-2" transform="translate(-684.816 -442.719)"/>
            <path id="Path_31775" d="M959.89 759.816l-6.777.667v6.153h6.777z" class="cls-2" transform="translate(-701.991 -448.558)"/>
            <path id="Path_31776" d="M785.891 738.847l-6.777 2v12.8l6.777 2z" class="cls-2" transform="translate(-651.336 -442.454)"/>
            <path id="Path_31777" d="M959.89 731.2l-6.777-1.334v13.99l6.777-2z" class="cls-2" transform="translate(-701.991 -439.839)"/>
            <path id="Path_31778" d="M626.658 675.085h-8.012a19.81 19.81 0 0 0-19.787 19.787v8.012a19.809 19.809 0 0 0 19.787 19.787h8.012a19.809 19.809 0 0 0 19.787-19.787v-8.012a19.809 19.809 0 0 0-19.787-19.787z" class="cls-2" transform="translate(-598.859 -423.891)"/>
            <path id="Path_31779" d="M636.646 691.526a3.543 3.543 0 0 0-5.017 0L625.154 698l-.15-.15-.15.15-6.475-6.474a3.548 3.548 0 1 0-5.018 5.017l6.476 6.475-.15.15.15.15-6.476 6.475a3.548 3.548 0 1 0 5.017 5.017l6.476-6.475.15.15.15-.15 6.474 6.475a3.548 3.548 0 1 0 5.018-5.017l-6.475-6.476.15-.15-.15-.15 6.475-6.474a3.54 3.54 0 0 0 0-5.018z" class="cls-4" transform="translate(-602.778 -428.374)"/>
            <path id="Path_31780" d="M1045.863 338.964a.6.6 0 0 0 .583.583h18.234l-18.818-18.817z" class="cls-2" transform="translate(-728.992 -320.73)"/>
            <path id="Path_31781" d="M706.561 776.749c-6.137-.413-12.344-.944-18.462-1.574v2.132a28.759 28.759 0 0 0 32.221 28.463l.156-.021a17.681 17.681 0 0 1-10.038-5.141c-6.111-6.32-5.498-15.188-3.877-23.859z" class="cls-2" transform="translate(-624.839 -453.03)"/>
            <path id="Path_31782" d="M1085.91 412.059l-.04-.06.045-.029a30.752 30.752 0 0 1 12.968-4.769l.031-.284 3.144-30.609-4.6-.768c-8.366-1.4-16.719-2.626-24.828-3.657-.066-.01-.13-.016-.2-.026.159 2.367.338 4.952.538 7.828.8 11.535 6.815 23.257 12.911 32.389z" class="cls-6" transform="translate(-736.728 -335.614)"/>
            <path id="Path_31783" d="M816.954 414.483l.018.129c5.5-8.273 11.7-19.377 13.221-31.059a103.158 103.158 0 0 0 .777-12.258l-.2.024c-10.881 1.338-21.809 2.961-32.484 4.822l4.488 32.583c1.33.652 2.626 1.42 3.9 2.184 3.118 1.869 6.061 3.632 9.291 3.632a8.852 8.852 0 0 0 .938-.05z" class="cls-6" transform="translate(-656.917 -335.451)"/>
            <path id="Path_31784" d="M1004.6 563.292l12.169 61.622v24.442l7.051-.033v-24.364l-11.257-47.216.414-.1 11.263 47.265.005 91.9 19.487-4.856V625l-23.232-61.667q-7.961-.004-15.9-.041z" class="cls-4" transform="translate(-716.979 -391.346)"/>
            <path id="Rectangle_786" d="M0 0H6.777V18.87H0z" class="cls-2" transform="translate(333.953 291.397)"/>
            <path id="Path_31785" d="M814.4 563.766q-5.542.157-10.871.352l-22.846 41.133a88.039 88.039 0 0 0-11.053 42.656v2.353l7.045-.033v-8.145a68.69 68.69 0 0 1 7.99-32.092l18.114-34.123.376.2-18.115 34.122a68.275 68.275 0 0 0-7.94 31.892v35.557l5.3-1.969v-33.832a68.717 68.717 0 0 1 7.775-31.682z" class="cls-2" transform="translate(-648.574 -391.484)"/>
            <path id="Rectangle_787" d="M0 0H6.777V6.133H0z" class="cls-2" transform="translate(333.953 317.901)"/>
            <path id="Path_31786" d="M853.4 563.036l-26.542 61.843v24.943l7.05-.027.007-25.042 13.253-32.943.394.159-13.237 32.9v50.5l5.3.656v-51.233l.015-.038 19.318-49.127.4.155-19.3 49.09v24.892l7.034-.026v-24.9a.192.192 0 0 1 .014-.075l23.319-61.892c-5.913.029-11.57.088-17.025.165z" class="cls-2" transform="translate(-665.234 -391.222)"/>
            <path id="Path_31787" d="M783.466 564.416c-3.636.145-7.366.323-11.148.566a1.023 1.023 0 0 1-.471.615l-20.7 26.49c-5.02 6.421-10.211 13.06-13.48 20.691-2.465 5.753-3.99 12.344-4.795 20.725v16.606l.591.014-.01.391v.574a1.309 1.309 0 0 1 0 .269V688.1c0 1.538.077 4.133.167 7.138.262 8.809.623 20.873-.271 25.109a14.631 14.631 0 0 1-5.565 9.069 12.64 12.64 0 0 1-7.284 2.184 15.139 15.139 0 0 1-6.746-1.61 15.765 15.765 0 0 0 4.461 8.932 17.224 17.224 0 0 0 11.372 5.171l.073-.014c13.279-2.558 23.277-15.179 23.277-29.4v-66.62a88.479 88.479 0 0 1 11.105-42.859l22.722-40.907q-1.657.059-3.298.123z" class="cls-4" transform="translate(-632.307 -391.636)"/>
            <path id="Path_31788" d="M1297.771 683.464a5.973 5.973 0 0 0-8.462 0l-10.671 10.67-.15-.15-.25.25-10.67-10.669a5.843 5.843 0 1 0-8.263 8.262l10.671 10.671-.25.25.25.251-10.67 10.669a5.843 5.843 0 1 0 8.262 8.264l10.671-10.671.25.25.15-.15 10.671 10.67a5.984 5.984 0 1 0 8.463-8.463L1287.1 702.9l.15-.15-.15-.15 10.67-10.67a5.968 5.968 0 0 0 0-8.463z" class="cls-2" transform="translate(-790.631 -425.819)"/>
            <path id="Path_31789" d="M1202.938 464.69a70.046 70.046 0 0 0 10.037.8 45.956 45.956 0 0 0 6.825-.49c4.015-.6 11.485-1.713 10.762-7.59a7.69 7.69 0 0 0-3.683-5.393 16.991 16.991 0 0 0-9.081-2.184 48.687 48.687 0 0 0-15.156 2.965l-.133.05c-1.321.491-5.692 2.355-6.51 5.736a3.7 3.7 0 0 0 .466 3.1c1.358 1.996 4.635 2.741 6.473 3.006z" class="cls-5" transform="translate(-772.661 -358.315)"/>
            <path id="Path_31790" d="M1111.9 563.586l.125-.1c-4.7-.143-9.268-.224-13.587-.269l23.15 41.667a88.471 88.471 0 0 1 11.1 42.862v52.436c0 14.429 10.176 27.084 23.686 29.477l.028.006a17.226 17.226 0 0 0 10.995-5.136 16.845 16.845 0 0 0 4.462-9.021 15.114 15.114 0 0 1-6.729 1.6 12.638 12.638 0 0 1-7.284-2.176 14.569 14.569 0 0 1-5.565-9.069c-.825-3.912-.576-8.185-.336-12.316.111-1.91.225-3.884.225-5.754v-23.422h.06c-.116-4.4-.3-8.4-.552-12.121-.589-8.65-1.45-17.876-3.742-26.744-6.044-23.4-22.658-44.737-36.009-61.879z" class="cls-4" transform="translate(-744.297 -391.324)"/>
            <path id="Path_31791" d="M1066 563.159c-3.855.013-7.651.037-11.136.059h-.3c-3.738.023-7.146.043-10.521.057l24.78 61.6v24.265l7.041-.026v-24.15l-15.012-34.979a.212.212 0 0 1 .39-.167l15.03 35.019a.213.213 0 0 1 .017.084v68.391l9.041 2.723 3.4-16.785a.22.22 0 0 1 .227-.169.213.213 0 0 1 .193.208l.362 21.057h6.259v-60.66a64.847 64.847 0 0 0-6.388-27.976z" class="cls-4" transform="translate(-728.462 -391.307)"/>
            <path id="Path_31792" d="M1040.593 563.331c-1.259 0-2.535.007-3.834.01l24.218 61.585v50.552h5.3v-50.471l-24.813-61.679z" class="cls-2" transform="translate(-726.342 -391.356)"/>
            <path id="Path_31793" d="M1029.009 563.351h-1.344l23.2 61.587v24.315l7.035-.026v-24.216l-24.249-61.664c-1.499.002-3.039.004-4.642.004z" class="cls-2" transform="translate(-723.695 -391.362)"/>
            <path id="Path_31794" d="M1182.489 785.826a28.749 28.749 0 0 0 32.034-28.48v-2.036c-6.121.631-12.332 1.162-18.473 1.575 1.621 8.671 2.234 17.54-3.877 23.859a17.674 17.674 0 0 1-9.684 5.082z" class="cls-2" transform="translate(-768.767 -447.247)"/>
            <path id="Path_31795" d="M1091.319 563.191c-3.661-.036-7.147-.048-10.364-.048-1.755 0-3.522 0-5.28.009l23.3 48.37a65.281 65.281 0 0 1 6.429 28.16v9.34l7.035-.033v-8.555a63.284 63.284 0 0 0-7.162-29.182l-14.254-27.3.376-.2 14.254 27.3a63.7 63.7 0 0 1 7.21 29.378v34.991h5.3V640.66a63.269 63.269 0 0 0-7.359-29.558l-6.354-11.967.375-.2 6.353 11.967a63.688 63.688 0 0 1 7.409 29.757v8.305l7.039-.033v-1.207a88.036 88.036 0 0 0-11.047-42.656z" class="cls-2" transform="translate(-737.672 -391.302)"/>
        </g>
        <path id="Path_31796" d="M824.09 406.817s14.455-18.665 16.519-38.627c1.224-11.843-.37-29.092-1.674-46.846l142.861-.339-.284 19.544h19.827s.284 25.238 3.052 36.155a71.618 71.618 0 0 0 15.247 29.244s-75.612 2.921-101.4 2.5-94.148-1.631-94.148-1.631z" class="cls-4" transform="translate(-80.78 -2.831)"/>
        <path id="Path_31797" fill="#e76f42" d="M992.538 397.523a5.036 5.036 0 0 0 5.031-5.029v-12.545a5.037 5.037 0 0 0-5.032-5.029L885 374.069a5.035 5.035 0 0 0-5.028 5.029v14.246a5.036 5.036 0 0 0 5.028 5.03z" transform="translate(-97.049 -18.279)"/>
        <g id="Group_12216" transform="translate(599.886 389.372)">
            <g id="Group_12215">
                <g id="Group_12192" transform="translate(0 43.635)">
                    <path id="Path_31798" d="M702.9 590.242a63.214 63.214 0 0 0-4.3 16.438c-.187 1.387-.349 2.791-.485 4.2-2.493 0-5.02.111-7.692.221-6.977.289-14.15.587-20.829-1.063-.009-.06-.009-.119-.018-.179l-.042.008c.008.051.008.111.016.162a30.929 30.929 0 0 1-3.667-1.132 29.369 29.369 0 0 1-13.3-10.917c-5.5-7.827-8.322-17.281-11.054-26.428l-.281-.944c-7.274-24.3-13.58-48.976-18.744-73.32-.826-3.9-.962-6.739-.435-9.223a12.954 12.954 0 0 1 1.3-3.539c.646 0 1.284.009 1.915.009 7.785 0 14.175-.179 22.191-.613L688.5 483c-1.387 8.483-.375 17.937.544 26.5.179 1.65.349 3.208.494 4.747a267.676 267.676 0 0 0 7.768 42.62 19.9 19.9 0 0 0-.655 2.339 26.648 26.648 0 0 0-.145 9.709c.706 4.356 2.6 9.946 4.28 14.89.787 2.318 1.528 4.505 2.114 6.437z" class="cls-8" transform="translate(-621.764 -482.998)"/>
                </g>
                <g id="Group_12193" transform="translate(388.688 45.511)">
                    <path id="Path_31799" d="M1254.051 496.876c-7.207 30.912-14.669 62.87-26.087 93.093-3.029 8-6.646 13.469-11.385 17.2a27.227 27.227 0 0 1-8.509 4.51c-.2.077-.425.136-.638.2-.009-.034-.009-.059-.018-.085l-.043.008a.3.3 0 0 1 .017.085 43.7 43.7 0 0 1-10.38 1.753c-3.149.179-6.356.179-9.462.179h-.272c-3.684 0-7.488.008-11.214.306-.51-3.208-1.131-6.407-1.949-9.564a92.45 92.45 0 0 0-4.033-11.989c.289-.74.613-1.548.961-2.408 2.332-5.76 5.778-14.295 7.207-22.386.034-.2.068-.4.1-.6.043-.289.1-.587.145-.885 0-.034.009-.068.009-.1 2.5-16 6.024-47.087 7.564-60.625.316-2.808.545-4.833.639-5.607a77.213 77.213 0 0 0 .647-14.175q14.512.179 29.04.187 18.647 0 37.192-.306v-.026a14.306 14.306 0 0 1 .553 1.489 18.448 18.448 0 0 1-.084 9.746z" class="cls-8" transform="translate(-1170.079 -485.645)"/>
                </g>
                <g id="Group_12194" transform="translate(55.624 169.508)">
                    <path id="Path_31800" d="M727.953 674.23l-.025.051h.017v.008c-.051 1.294-.1 2.646-.153 4.042-2-.059-4.024-.111-6.05-.161-1.761-.051-3.514-.1-5.25-.145-3.08-.085-6.568-.179-9.427-1.872a12.873 12.873 0 0 1-5.276-7.012 36.958 36.958 0 0 1-1.557-8.577 52.3 52.3 0 0 0 12.568 1.286c2.757 0 5.522-.119 8.253-.23 2.672-.111 5.19-.221 7.684-.221-.402 4.186-.606 8.475-.784 12.831z" class="cls-5" transform="translate(-700.232 -660.565)"/>
                </g>
                <g id="Group_12195" transform="translate(55.624 173.762)">
                    <path id="Path_31801" d="M727.953 680.232l-.025.051h.017v.008c-.051 1.293-.1 2.646-.153 4.041-2-.06-4.024-.111-6.05-.162-1.761-.051-3.514-.1-5.25-.145-3.08-.085-6.568-.179-9.427-1.872a12.869 12.869 0 0 1-5.276-7.011 36.959 36.959 0 0 1-1.557-8.577 52.33 52.33 0 0 0 12.567 1.284c2.757 0 5.522-.119 8.253-.23 2.672-.111 5.19-.221 7.684-.221-.401 4.189-.605 8.477-.783 12.834z" class="cls-5" transform="translate(-700.232 -666.567)"/>
                </g>
                <g id="Group_12196" transform="translate(389.572 170.103)">
                    <path id="Path_31802" d="M1200.81 669.676a17.865 17.865 0 0 1-6.679 5.786c-5.071 2.509-11.054 2.288-16.839 2.076-1.531-.051-2.987-.11-4.424-.11-.349-4.518-.817-9.155-1.54-13.784 3.727-.3 7.522-.306 11.207-.306h.271c3.106 0 6.314 0 9.462-.179a43.825 43.825 0 0 0 10.389-1.753 10.55 10.55 0 0 1-1.847 8.27z" class="cls-5" transform="translate(-1171.327 -661.405)"/>
                </g>
                <g id="Group_12197" transform="translate(389.572 174.358)">
                    <path id="Path_31803" d="M1200.81 675.677a17.856 17.856 0 0 1-6.679 5.786c-5.071 2.51-11.054 2.289-16.839 2.076-1.531-.051-2.987-.111-4.424-.111-.349-4.518-.817-9.156-1.54-13.784 3.727-.3 7.522-.306 11.207-.306h.271c3.106 0 6.314 0 9.462-.179a43.89 43.89 0 0 0 10.389-1.753 10.55 10.55 0 0 1-1.847 8.271z" class="cls-5" transform="translate(-1171.327 -667.407)"/>
                </g>
                <g id="Group_12198" transform="translate(128.445 2.023)">
                    <path id="Path_31804" d="M818.492 430.108q-1.327 2-2.808 4.11c-1.021-.034-2.051-.051-3.071-.085-4.382-.136-7.658-1.481-8.977-3.7-1-1.667-.894-3.727.306-6.135 1.361.664 2.68 1.447 3.982 2.229a37.746 37.746 0 0 0 5.19 2.757 10.587 10.587 0 0 0 5.378.824z" class="cls-5" transform="translate(-802.959 -424.297)"/>
                </g>
                <g id="Group_12199" transform="translate(332.854 .389)">
                    <path id="Path_31805" d="M1107.2 428.536c-.647 2.468-3.387 3.82-8.127 4.007-1.216.051-2.424.094-3.641.136-1.463-1.94-2.824-3.871-4.118-5.794a30.591 30.591 0 0 1 13.257-4.893c1.72 2.085 3.229 4.323 2.629 6.544z" class="cls-5" transform="translate(-1091.315 -421.992)"/>
                </g>
                <g id="Group_12200" transform="translate(351.428 100.596)">
                    <path id="Path_31806" d="M1158.053 587.109c-.051.349-.1.681-.162 1.012-1.361 8.253-4.91 17.06-7.3 22.957-.331.842-.654 1.642-.944 2.365a137.236 137.236 0 0 0-10.84-20.625c-6.313-10.075-13.673-19.681-21.288-29.466 6.892.213 13.776.537 20.608 1.056 4.493.34 8.84.808 12.653 2.74a13.1 13.1 0 0 1 6.832 8.228 27.461 27.461 0 0 1 .441 11.733z" class="cls-5" transform="translate(-1117.518 -563.352)"/>
                </g>
                <g id="Group_12201" transform="translate(82.197 101.787)">
                    <path id="Path_31807" d="M779.146 565.033c-3.532 4.518-7.19 9.206-10.73 13.733-3.506 4.492-7.02 8.993-10.466 13.4-5.02 6.415-10.2 13.052-13.486 20.693-.578-1.932-1.319-4.1-2.1-6.4-1.667-4.935-3.564-10.534-4.271-14.882a26.555 26.555 0 0 1 .145-9.691 16.513 16.513 0 0 1 4.314-8.339c3.761-3.778 9.283-5.156 14.694-6.084a208.821 208.821 0 0 1 21.9-2.43z" class="cls-5" transform="translate(-737.717 -565.033)"/>
                </g>
                <g id="Group_12202" transform="translate(9.422 .338)">
                    <path id="Path_31808" d="M724.5 422.082c-2.289.069-4.654.137-6.968.2-9.385.213-18.549.578-27.467 2.56-8.678 1.923-17.511 6.4-26.981 13.665-8.27 6.348-16.005 14.031-22.82 20.813-.664.655-1.319 1.31-1.966 1.957a17.823 17.823 0 0 0-3.242 4.211c.638 0 1.268.008 1.889.008 7.785 0 14.167-.179 22.191-.612l41.028-.919a35.467 35.467 0 0 1 1.881-7.148c1.591-4.1 12.057-16.328 18.31-23.637 1.362-1.6 2.544-2.987 3.284-3.88l6.476-7.377c-1.882.048-3.762.099-5.615.159zm-31.74 29.772c-.476 1.226-1.786 2.059-3.778 2.425a49.028 49.028 0 0 1-8.806.774 64.01 64.01 0 0 1-11.112-1.029 4.353 4.353 0 0 1-2.4-1.216 2.272 2.272 0 0 1-.74-2.527c.749-1.8 4.16-3.14 6.892-3.948a38.585 38.585 0 0 1 7.428-1.446l3.684-.493a8.3 8.3 0 0 1 7.786 3.106c1.148 1.529 1.532 3.12 1.046 4.354zm6.722-15.919c-.17 2.093-2.5 2.969-3.872 3.3a22.2 22.2 0 0 1-5.386.6c-1.174 0-2.441-.06-3.846-.2-1.506-.136-2.553-.842-2.723-1.83-.17-1.012.6-2.034 2.017-2.689 2.723-1.25 5.837-1.421 8.849-1.591l.391-.026c1.864-.1 3.191.23 3.948 1a2.042 2.042 0 0 1 .623 1.436z" class="cls-8" transform="translate(-635.055 -421.92)"/>
                </g>
                <g id="Group_12203" transform="translate(58.042 11.944)">
                    <path id="Path_31809" d="M719.408 440.7c-.17 2.059-2.476 2.927-3.837 3.259a27.04 27.04 0 0 1-9.224.4c-1.489-.136-2.519-.825-2.68-1.8-.17-.987.6-2 2-2.638 2.714-1.25 5.82-1.421 8.823-1.591l.391-.026c.23-.009.442-.017.656-.017a4.472 4.472 0 0 1 3.259 1 1.991 1.991 0 0 1 .612 1.413z" class="cls-9" transform="translate(-703.643 -438.293)"/>
                </g>
                <g id="Group_12204" transform="translate(40.191 22.775)">
                    <path id="Path_31810" d="M705.363 461.051c-.476 1.209-1.769 2.042-3.752 2.4a56.177 56.177 0 0 1-19.91-.255 4.233 4.233 0 0 1-2.366-1.2 2.235 2.235 0 0 1-.732-2.485c.408-.987 1.932-2.476 6.858-3.923a38.539 38.539 0 0 1 7.42-1.446l3.693-.493a9.3 9.3 0 0 1 1.182-.077 8.154 8.154 0 0 1 6.561 3.166c1.14 1.523 1.522 3.097 1.046 4.313z" class="cls-9" transform="translate(-678.46 -453.572)"/>
                </g>
                <g id="Group_12205" transform="translate(374.232 1.198)">
                    <path id="Path_31811" d="M1237.853 458.963a171.079 171.079 0 0 0-27.6-24.139 52.334 52.334 0 0 0-15.223-7.479 71.728 71.728 0 0 0-16.932-2.672q-3.255-.166-6.5-.349c-7.2-.383-14.551-.774-21.91-1.191l5.191 6.05c2.731 3.505 5.164 6.288 7.521 8.977a115.891 115.891 0 0 1 8.117 10.007 32.491 32.491 0 0 1 5.591 15.349q.127 1.162.2 2.323c22.089.281 44.262.255 66.223-.111a23.828 23.828 0 0 0-4.678-6.765zm-57.859-17.3a5.6 5.6 0 0 1-1.906.324 5.429 5.429 0 0 1-3.284-1.056 3.279 3.279 0 0 1-1.421-2.366 1.855 1.855 0 0 1 .664-1.514c1.472-1.277 5.08-1.141 6.595-.877l-.009.043c-1.515-.264-5.1-.4-6.56.868a1.767 1.767 0 0 0-.639 1.48 3.2 3.2 0 0 0 1.4 2.331 5.571 5.571 0 0 0 5.148.723 4.467 4.467 0 0 0 2.944-3.174l.034.009a4.5 4.5 0 0 1-2.966 3.21zm36.553 11.6a6.942 6.942 0 0 1-2.782 2.254 26.274 26.274 0 0 1-7.369 1.923 46.667 46.667 0 0 1-6.866.493 71.138 71.138 0 0 1-10.066-.8c-1.872-.272-5.216-1.038-6.619-3.106a3.946 3.946 0 0 1-.494-3.267 6.859 6.859 0 0 1 2.611-3.676 15.125 15.125 0 0 1 4.034-2.212c.042-.017.094-.034.136-.051a51.851 51.851 0 0 1 12.269-2.85c1.021-.094 2-.136 2.935-.136a17.131 17.131 0 0 1 9.215 2.229 7.9 7.9 0 0 1 3.786 5.548 5.194 5.194 0 0 1-.79 3.65z" class="cls-8" transform="translate(-1149.686 -423.133)"/>
                </g>
                <g id="Group_12206" transform="translate(406.794 19.943)">
                    <path id="Path_31812" fill="#f96632" d="M1229.886 460.935a7 7 0 0 1-2.765 2.246 26.111 26.111 0 0 1-7.36 1.915 57.364 57.364 0 0 1-16.915-.306c-1.864-.272-5.2-1.029-6.586-3.089a3.877 3.877 0 0 1-.494-3.233c.834-3.464 5.276-5.361 6.62-5.854l.128-.051a51.865 51.865 0 0 1 12.269-2.85c1.013-.094 1.991-.136 2.927-.136a17.165 17.165 0 0 1 9.2 2.22 7.859 7.859 0 0 1 3.761 5.514 5.165 5.165 0 0 1-.785 3.624z" transform="translate(-1195.621 -449.576)"/>
                </g>
                <g id="Group_12207" transform="translate(379.621 3.372)">
                    <path id="Path_31813" d="M1245.456 462.03a171.12 171.12 0 0 0-27.6-24.139 52.314 52.314 0 0 0-15.222-7.479 71.683 71.683 0 0 0-16.932-2.672q-3.256-.166-6.5-.349c-7.2-.383-14.55-.775-21.91-1.192l5.19 6.05c2.731 3.506 5.165 6.288 7.522 8.977a115.969 115.969 0 0 1 8.117 10.006 32.494 32.494 0 0 1 5.59 15.35q.128 1.161.2 2.323c22.089.281 44.262.255 66.223-.111a23.82 23.82 0 0 0-4.678-6.764zm-57.859-17.3a5.607 5.607 0 0 1-1.906.323 5.428 5.428 0 0 1-3.284-1.055 3.282 3.282 0 0 1-1.421-2.366 1.856 1.856 0 0 1 .663-1.515c1.472-1.276 5.08-1.14 6.594-.876l-.009.043c-1.514-.264-5.1-.4-6.56.868a1.77 1.77 0 0 0-.638 1.481 3.2 3.2 0 0 0 1.4 2.332 5.574 5.574 0 0 0 5.147.723 4.465 4.465 0 0 0 2.944-3.174l.034.008a4.506 4.506 0 0 1-2.961 3.21zm36.553 11.6a6.937 6.937 0 0 1-2.782 2.255 26.322 26.322 0 0 1-7.369 1.923 46.644 46.644 0 0 1-6.866.493 71.15 71.15 0 0 1-10.066-.8c-1.871-.273-5.215-1.039-6.619-3.106a3.95 3.95 0 0 1-.493-3.267 6.858 6.858 0 0 1 2.612-3.676 15.108 15.108 0 0 1 4.033-2.212c.042-.017.094-.034.136-.051a51.9 51.9 0 0 1 12.269-2.85c1.021-.094 2-.136 2.936-.136a17.124 17.124 0 0 1 9.215 2.229 7.892 7.892 0 0 1 3.787 5.548 5.2 5.2 0 0 1-.793 3.649z" class="cls-6" transform="translate(-1157.289 -426.2)"/>
                </g>
                <g id="Group_12208" transform="translate(7.781 42.422)">
                    <path id="Path_31814" d="M713.878 588.531a63.251 63.251 0 0 0-4.3 16.439c-.187 1.387-.349 2.791-.485 4.194-2.494 0-5.02.111-7.692.222-6.977.289-14.15.587-20.83-1.064-.008-.06-.008-.119-.017-.179l-.042.008c.008.051.008.111.016.162a30.94 30.94 0 0 1-3.667-1.131 29.37 29.37 0 0 1-13.3-10.917c-5.5-7.828-8.322-17.281-11.054-26.428l-.281-.944c-7.274-24.3-13.58-48.976-18.744-73.319-.826-3.9-.962-6.739-.435-9.224a12.951 12.951 0 0 1 1.3-3.539c.647 0 1.284.008 1.915.008 7.785 0 14.175-.179 22.191-.612l41.02-.919c-1.387 8.483-.374 17.936.544 26.5.179 1.651.349 3.208.493 4.748a267.765 267.765 0 0 0 7.769 42.62 19.64 19.64 0 0 0-.655 2.34 26.629 26.629 0 0 0-.145 9.708c.706 4.357 2.6 9.947 4.28 14.891.792 2.318 1.532 4.505 2.119 6.436z" class="cls-8" transform="translate(-632.741 -481.288)"/>
                </g>
                <g id="Group_12209" transform="translate(1.64 1.551)">
                    <path id="Path_31815" d="M713.521 423.793c-2.289.068-4.654.136-6.968.2-9.386.213-18.549.578-27.466 2.561-8.679 1.923-17.511 6.4-26.981 13.665-8.27 6.347-16.005 14.031-22.82 20.812-.664.656-1.319 1.311-1.966 1.957a17.826 17.826 0 0 0-3.242 4.212c.638 0 1.267.008 1.889.008 7.785 0 14.167-.179 22.191-.613l41.028-.919a35.463 35.463 0 0 1 1.881-7.148c1.591-4.1 12.057-16.328 18.311-23.637 1.361-1.6 2.543-2.986 3.284-3.88l6.475-7.377c-1.88.048-3.761.099-5.616.159zm-31.738 29.772c-.476 1.225-1.786 2.059-3.778 2.425a49.024 49.024 0 0 1-8.806.774 63.944 63.944 0 0 1-11.112-1.03 4.357 4.357 0 0 1-2.4-1.216 2.271 2.271 0 0 1-.74-2.527c.749-1.8 4.16-3.14 6.892-3.948a38.553 38.553 0 0 1 7.428-1.447l3.684-.493a8.3 8.3 0 0 1 7.786 3.106c1.149 1.531 1.532 3.122 1.046 4.356zm6.722-15.92c-.17 2.093-2.5 2.969-3.871 3.3a22.211 22.211 0 0 1-5.387.6c-1.174 0-2.441-.06-3.846-.2-1.506-.136-2.553-.842-2.723-1.829-.17-1.013.6-2.034 2.017-2.689 2.723-1.251 5.837-1.421 8.849-1.591l.391-.026c1.864-.1 3.191.23 3.948 1a2.042 2.042 0 0 1 .623 1.435z" class="cls-6" transform="translate(-624.078 -423.631)"/>
                </g>
                <g id="Group_12210" transform="translate(383.582 43.809)">
                    <path id="Path_31816" d="M1246.849 494.475c-7.207 30.912-14.669 62.871-26.087 93.094-3.029 8-6.646 13.469-11.385 17.2a27.243 27.243 0 0 1-8.509 4.509c-.2.077-.425.136-.638.2-.009-.034-.009-.059-.017-.085l-.043.009a.277.277 0 0 1 .017.085 43.663 43.663 0 0 1-10.38 1.753c-3.148.179-6.356.179-9.462.179h-.271c-3.685 0-7.489.008-11.215.306-.51-3.208-1.131-6.407-1.948-9.564a92.442 92.442 0 0 0-4.033-11.989c.289-.74.612-1.548.962-2.407 2.331-5.76 5.777-14.3 7.206-22.386.034-.2.068-.4.1-.6.043-.289.1-.587.145-.885 0-.034.009-.068.009-.1 2.5-16 6.025-47.087 7.564-60.625.315-2.808.544-4.833.638-5.607a77.223 77.223 0 0 0 .646-14.175q14.512.179 29.041.187 18.646 0 37.191-.306v-.026a14.257 14.257 0 0 1 .553 1.489 18.435 18.435 0 0 1-.084 9.744z" class="cls-8" transform="translate(-1162.877 -483.244)"/>
                </g>
                <g id="Group_12211" transform="translate(73.876)">
                    <path id="Path_31817" d="M1052.916 465.4q-14.856-.191-29.652-.578l.009-.043q14.766.383 29.644.57c-.051-.774-.119-1.548-.2-2.314a32.436 32.436 0 0 0-5.582-15.332 115.944 115.944 0 0 0-8.117-10.007c-2.357-2.689-4.79-5.471-7.521-8.976l-5.216-6.084q-6.5-.357-12.976-.757l-2.57-.154a70.52 70.52 0 0 0-10.474-.128q-1.021.1-1.991.23c1.718 2.093 3.216 4.331 2.62 6.56-.655 2.493-3.4 3.854-8.169 4.041-33.575 1.336-67.644 2.093-101.253 2.246q-6.432.025-12.882.026c-28.377 0-56.992-.434-85.283-1.267-1.029-.034-2.068-.051-3.1-.085-4.4-.136-7.684-1.489-9.011-3.719-1-1.684-.9-3.761.306-6.177a14.235 14.235 0 0 0-5.352-1.549c-6.441-.357-13.018-.281-19.5-.119l-6.5 7.4c-.74.9-1.922 2.28-3.293 3.88-6.245 7.309-16.7 19.537-18.293 23.629-3.889 10.015-2.536 22.59-1.344 33.677.179 1.651.348 3.208.493 4.74a266.7 266.7 0 0 0 7.752 42.552 15.679 15.679 0 0 1 3.651-5.947c3.769-3.786 9.3-5.165 14.711-6.092a257.826 257.826 0 0 1 33.2-3.012c23.017-.911 46.313-1.166 69.423-1.166 14.167 0 28.266.094 42.186.187s28.249.187 42.458.187q4.531 0 9.028-.008c3.991-.017 8.058-.043 11.981-.068 13.6-.085 27.516-.153 41.394.264h.009c6.909.2 13.8.528 20.642 1.047 4.5.34 8.849.808 12.677 2.74a13.2 13.2 0 0 1 6.85 8.253 26.137 26.137 0 0 1 .638 10.236c2.476-16.379 5.837-45.989 7.326-59.1.315-2.808.545-4.842.638-5.616a77.051 77.051 0 0 0 .643-14.167zm-37.693-3.437a92.129 92.129 0 0 0-11.453-3.812l-17.715 1.489c-15.868 1.251-32.094 2.17-49.589 2.808-15.579.578-31.822.91-49.656 1.038-5.046.034-10.109.043-15.163.043-28.232 0-56.625-.485-84.227-.961l-18.906-.6c-1.813.6-3.565 1.225-5.266 1.906l-.018-.043c1.694-.681 3.454-1.311 5.258-1.9v-.009h.017a117.132 117.132 0 0 1 20.37-4.552c8.687-1.208 17.528-1.718 26.581-2.187 34.588-1.761 63.2-2.595 90.056-2.629 5.207-.009 10.576-.069 15.775-.12 24.165-.238 49.138-.485 72.613 3.54 3.454.587 6.731 1.3 9.878 2.135l.4-.033.008.043-.289.026a91.632 91.632 0 0 1 11.333 3.778z" class="cls-3" transform="translate(-725.979 -421.443)"/>
                </g>
                <g id="Group_12212" transform="translate(80.122 2.362)">
                    <path id="Path_31818" d="M1049.239 467.034v-.049c-.05-.745-.115-1.489-.2-2.226a31.207 31.207 0 0 0-5.368-14.747 111.491 111.491 0 0 0-7.808-9.624c-2.267-2.586-4.608-5.262-7.234-8.633l-5.017-5.852q-6.249-.343-12.481-.728l-2.471-.147c-1.946-.121-3.931-.23-5.917-.252.069.177.15.35.209.527a6.726 6.726 0 0 1-.481 5.444c-1.614 2.766-4.879 3.573-7.818 4.165a18.29 18.29 0 0 1-3.318.41c-32.292 1.285-65.059 2.013-97.385 2.161q-6.186.024-12.39.024c-27.292 0-54.815-.417-82.025-1.219-.99-.033-1.988-.049-2.979-.082-.69-.021-1.339-.085-1.969-.167-3.921.136-8.319-1.095-10.329-4.708a8.71 8.71 0 0 1-.725-6.072c-.166-.018-.329-.052-.5-.061-6.195-.343-12.521-.27-18.757-.114l-6.253 7.12c-.712.867-1.849 2.193-3.167 3.732-6.007 7.03-16.064 18.789-17.6 22.726-3.74 9.632-2.438 21.728-1.292 32.391.172 1.587.335 3.085.474 4.558a256.6 256.6 0 0 0 6.134 35.773 25.6 25.6 0 0 1 11.441-4.834c.4-.064.791-.1 1.182-.134a48.788 48.788 0 0 1 6.36-1.457 247.974 247.974 0 0 1 31.933-2.9c22.137-.875 44.544-1.121 66.771-1.121 13.626 0 27.187.09 40.575.18s27.17.18 40.836.18q4.358 0 8.683-.008c3.838-.016 7.75-.041 11.523-.066 13.086-.081 26.466-.147 39.813.254h.009c6.645.2 13.274.508 19.853 1.007a37.817 37.817 0 0 1 10.3 1.828 10.614 10.614 0 0 1 2.714.3 109.119 109.119 0 0 1 5.452 1.9 10.875 10.875 0 0 1 2.847 2.5c1.976-15.221 4.054-33.525 5.125-42.956.3-2.7.524-4.657.613-5.4a74.11 74.11 0 0 0 .637-13.623z" class="cls-8" transform="translate(-734.791 -424.776)"/>
                </g>
                <g id="Group_12213" transform="translate(116.52 30.915)">
                    <path id="Path_31819" d="M1021.164 470.81l-17.6 1.48c-15.868 1.251-32.086 2.17-49.58 2.808-15.587.578-31.831.91-49.656 1.038q-7.569.051-15.163.051c-28.223 0-56.625-.493-84.227-.97l-18.8-.6a117.119 117.119 0 0 1 20.25-4.51c8.7-1.208 17.536-1.718 26.581-2.186 34.588-1.762 63.2-2.6 90.056-2.629 5.207-.009 10.585-.069 15.775-.12 24.156-.238 49.138-.485 72.6 3.54 3.425.575 6.658 1.281 9.764 2.098z" class="cls-3" transform="translate(-786.137 -465.054)"/>
                </g>
                <g id="Group_12214" transform="translate(116.461 27.949)">
                    <path id="Path_31820" d="M1021.081 466.626l-17.6 1.481c-15.869 1.25-32.086 2.169-49.58 2.808-15.588.578-31.831.91-49.657 1.038q-7.569.051-15.162.051c-28.224 0-56.626-.493-84.228-.97l-18.8-.6a117.111 117.111 0 0 1 20.25-4.509c8.7-1.209 17.536-1.719 26.581-2.187 34.587-1.762 63.2-2.6 90.056-2.629 5.207-.009 10.585-.068 15.775-.119 24.156-.238 49.137-.485 72.6 3.539 3.426.571 6.659 1.28 9.765 2.097z" class="cls-6" transform="translate(-786.054 -460.87)"/>
                </g>
            </g>
        </g>
        <g id="Group_12217" transform="translate(607.444 315.143)">
            <path id="Path_31821" d="M1195.987 461.729c1.437 2.123 4.837 2.9 6.734 3.175a70.23 70.23 0 0 0 10.095.8 46.26 46.26 0 0 0 6.889-.492c3.85-.574 11.859-1.767 11.09-8.022a8.08 8.08 0 0 0-3.865-5.676 17.428 17.428 0 0 0-9.334-2.27 48.176 48.176 0 0 0-15.24 3.014l-.139.052c-1.366.509-5.891 2.445-6.753 6.009a4.131 4.131 0 0 0 .523 3.41zm16.829 3.586a70.039 70.039 0 0 1-10.038-.8c-1.835-.266-5.115-1.01-6.468-3.008a3.7 3.7 0 0 1-.466-3.1c.818-3.381 5.189-5.245 6.51-5.736l.133-.05a48.688 48.688 0 0 1 15.157-2.965 16.993 16.993 0 0 1 9.081 2.184 7.69 7.69 0 0 1 3.683 5.393c.723 5.877-6.748 6.991-10.762 7.59a45.956 45.956 0 0 1-6.83.493z" transform="translate(-796.296 -355.309)"/>
            <path id="Path_31822" d="M1188 441.431a15 15 0 0 1 1.986.129l.051.007.067-.383-.054-.008a15.621 15.621 0 0 0-2.066-.135c-1.428 0-3.349.191-4.389 1.1a2 2 0 0 0-.717 1.651 3.428 3.428 0 0 0 1.484 2.5 5.58 5.58 0 0 0 3.367 1.1 5.861 5.861 0 0 0 1.987-.346 4.718 4.718 0 0 0 3-3.052l.016-.055-.379-.089-.015.048a4.342 4.342 0 0 1-2.753 2.782 5.45 5.45 0 0 1-1.839.315 5.2 5.2 0 0 1-3.148-1.019 3.042 3.042 0 0 1-1.33-2.2 1.6 1.6 0 0 1 .583-1.342c.997-.873 3.026-1.003 4.149-1.003z" transform="translate(-792.674 -352.92)"/>
            <path id="Path_31823" d="M719.495 440.917l.01-.059-.389-.03-.009.047c-.338 1.76-2.441 2.529-3.663 2.831a22.2 22.2 0 0 1-5.338.59c-1.158 0-2.409-.064-3.826-.2s-2.378-.766-2.529-1.656c-.153-.906.574-1.845 1.9-2.45a19.731 19.731 0 0 1 8.073-1.62c.256 0 .52 0 .781.013h.052l.017-.39h-.054c-.276-.008-.535-.012-.789-.012a20.168 20.168 0 0 0-8.245 1.655c-1.491.686-2.3 1.785-2.117 2.872.182 1.071 1.284 1.829 2.876 1.977 1.425.133 2.69.2 3.866.2a22.467 22.467 0 0 0 5.427-.6c2.282-.564 3.688-1.685 3.957-3.168z" transform="translate(-653.07 -352.03)"/>
            <path id="Path_31824" d="M685.114 455.7a40.2 40.2 0 0 1 7.406-1.538h.05l-.008-.388h-.056c-2.711.2-12.749 2.02-14.189 5.482a2.4 2.4 0 0 0 .744 2.692 6.3 6.3 0 0 0 3.654 1.489 63.391 63.391 0 0 0 10 .834 49.194 49.194 0 0 0 8.84-.771c3.641-.668 4.152-2.661 4.133-3.79-.05-2.8-3.24-6.066-6.565-6.71l-.055-.011-.057.386.05.009c3.1.607 6.192 3.744 6.237 6.33.03 1.761-1.287 2.937-3.813 3.4a48.678 48.678 0 0 1-8.769.765 62.877 62.877 0 0 1-9.943-.829 5.873 5.873 0 0 1-3.432-1.37 2.03 2.03 0 0 1-.666-2.275c.69-1.653 3.882-2.927 6.439-3.705z" transform="translate(-645.739 -356.398)"/>
            <path id="Path_31825" d="M1030.249 474.621l.049.02.148-.36-.049-.021a100.464 100.464 0 0 0-21.111-5.856c-18.77-3.218-38.435-3.653-55.2-3.653-5.763 0-11.6.058-17.252.114h-.514c-5.051.051-10.274.1-15.454.11-26.883.036-55.5.875-90.071 2.637-15.575.794-34.958 1.781-52.013 8.552l-.05.019.145.363.05-.02c16.991-6.746 36.338-7.732 51.891-8.524 34.59-1.763 63.2-2.6 90.049-2.638 5.282-.006 10.641-.06 15.824-.112h.246c5.578-.055 11.346-.112 17.137-.112 16.751 0 36.4.433 55.142 3.646a100.168 100.168 0 0 1 21.033 5.835z" transform="translate(-675.02 -359.823)"/>
            <path id="Path_31826" d="M896.549 478.91c-28.157 0-56.3-.483-83.523-.951h-.053l-.006.39h.053c27.175.468 55.277.951 83.527.951 44.569 0 80.971-1.229 114.562-3.868h.053l-.03-.39h-.053c-33.585 2.64-69.979 3.868-114.53 3.868z" transform="translate(-684.985 -362.818)"/>
            <path id="Path_31827" d="M984.386 317.066a1.753 1.753 0 0 1 .02-.274l.01-.062H840.858v.39h143.528z" transform="translate(-693.105 -316.73)"/>
            <path id="Path_31828" d="M1087.426 428.041a171.74 171.74 0 0 0-27.637-24.173c-9.267-6.5-18.617-9.449-32.271-10.184l-6.842-.366-.266-.014c-12.1-.649-24.611-1.32-36.951-2.086-2.181-.135-4.436-.276-6.688-.276-1.371 0-2.606.051-3.773.156a31.622 31.622 0 0 0-15.18 5.022l-.045.029.216.326.045-.029a30.559 30.559 0 0 1 13.279-4.764l-.251.207.032.041c1.554 1.916 2.914 3.983 2.35 6.117-.632 2.389-3.314 3.694-7.972 3.88-1.25.05-2.507.092-3.758.14l.138-.1-.032-.043c-7.189-9.587-15.965-23.977-16.946-38.084-.952-13.667-1.446-21.078-1.4-27.038v-.042l-.041-.011a1.493 1.493 0 0 1-.273-.094l-.074-.035v.083c-.05 6.006.447 13.445 1.4 27.163.987 14.169 9.759 28.588 16.969 38.214-36.491 1.4-73.593 2.113-110.357 2.113-28.2 0-56.665-.423-84.681-1.247 5.978-8.509 14.1-21.372 15.88-35.026 1.125-8.623.816-17.428.517-25.942l-1.8-24.512v-.049h-.392l1.806 24.563c.3 8.509.609 17.307-.513 25.89-1.524 11.682-7.726 22.787-13.221 31.059l-.018-.129-.051.006a8.843 8.843 0 0 1-.938.05c-3.23 0-6.173-1.762-9.291-3.632-2.979-1.786-6.06-3.634-9.468-3.822-3.106-.172-6.432-.255-10.167-.255-5.027 0-10.1.152-15.015.3l-.42.012c-2.212.067-4.378.13-6.561.181-9.39.217-18.561.577-27.51 2.566-19.534 4.344-35.667 20.383-49.9 34.536l-1.967 1.954c-5.417 5.375-5.638 10.384-4.189 17.218 5.161 24.341 11.467 49.017 18.743 73.338l.286.956c2.737 9.158 5.565 18.628 11.084 26.481a29.6 29.6 0 0 0 13.393 11 32.387 32.387 0 0 0 3.59 1.124 37.779 37.779 0 0 0 1.555 8.512 13.114 13.114 0 0 0 5.371 7.124c2.906 1.722 6.581 1.822 9.534 1.9l10.937.3h.053l.01-.391-11-.3c-3.057-.085-6.522-.18-9.338-1.849a12.709 12.709 0 0 1-5.2-6.915 36.81 36.81 0 0 1-1.523-8.287 52.853 52.853 0 0 0 12.371 1.226c2.766 0 5.562-.118 8.266-.232h.06c2.548-.106 4.954-.208 7.348-.215h.053v-.391h-.053c-2.408.009-4.85.111-7.435.219h-.07c-2.668.113-5.429.228-8.159.228-6.813 0-11.82-.747-16.235-2.422a29.218 29.218 0 0 1-13.213-10.855c-5.478-7.8-8.3-17.238-11.03-26.378l-.283-.946c-7.272-24.307-13.576-48.971-18.736-73.309-1.047-4.934-1.2-8.894.9-12.735v.188h1.709c7.652 0 14-.171 21.915-.59h.053l-.023-.391h-.052c-7.9.42-14.223.591-21.811.591h-1.685a18.252 18.252 0 0 1 3.079-3.92l1.968-1.956c14.185-14.119 30.269-30.119 49.701-34.437 8.911-1.981 18.062-2.34 27.434-2.558 2.392-.056 4.832-.128 6.984-.193 4.888-.146 9.941-.3 14.989-.3 3.738 0 7.061.083 10.16.254 3.311.183 6.353 2.007 9.295 3.771 3.021 1.81 6.144 3.682 9.508 3.682.269 0 .538-.02.805-.044-.845 1.266-1.672 2.468-2.461 3.59l-.03.043.149.1c-1.063-.031-2.13-.059-3.191-.091-4.324-.133-7.545-1.45-8.835-3.614-.931-1.56-.863-3.491.2-5.74l.022-.047-.348-.175-.023.05c-1.109 2.346-1.172 4.46-.186 6.113 1.359 2.28 4.7 3.666 9.156 3.8 29.111.893 58.759 1.345 88.118 1.345 38.156 0 76.649-.761 114.407-2.263 4.851-.193 7.655-1.595 8.333-4.168.609-2.3-.806-4.469-2.424-6.465l-.007-.01c.54-.069 1.082-.137 1.645-.186 1.158-.1 2.38-.154 3.736-.154 2.27 0 4.528.14 6.71.277 12.6.78 25.23 1.457 37.45 2.111l6.566.353c13.576.731 22.868 3.661 32.07 10.112a171.723 171.723 0 0 1 27.577 24.118 24.694 24.694 0 0 1 4.552 6.475h-.025c-12.191.2-24.6.3-36.884.3-9.6 0-19.249-.063-28.887-.186a33.744 33.744 0 0 0-5.828-17.606 116.243 116.243 0 0 0-8.129-10.021c-2.3-2.621-4.672-5.331-7.343-8.75l-.033-.043-.307.24.033.041c2.662 3.408 5.045 6.129 7.357 8.769l.016.017a115.962 115.962 0 0 1 8.088 9.969 33.381 33.381 0 0 1 5.753 17.38c-9.765-.126-19.517-.315-29.186-.566h-.053l-.009.392h.053c9.671.25 19.433.439 29.219.564a77.473 77.473 0 0 1-.665 13.975c-.085.694-.28 2.407-.525 4.573l-.123 1.078c-1.366 12.049-4.324 38.149-6.725 55-.056-6.254-2.095-11.645-7.834-14.551-3.851-1.95-8.222-2.419-12.736-2.762-16.075-1.219-32.52-1.376-45.051-1.376-5.626 0-11.3.035-16.786.069h-.286c-3.908.025-7.951.05-11.918.063-2.9.008-5.914.013-8.974.013-14.341 0-28.588-.1-42.365-.188h-.149c-13.724-.093-27.915-.189-42.2-.189-27.356 0-49.414.371-69.417 1.17a257.2 257.2 0 0 0-33.22 3.012c-5.443.932-11 2.321-14.808 6.141a15.826 15.826 0 0 0-3.5 5.49 267.706 267.706 0 0 1-7.6-41.988c-.145-1.487-.308-3.008-.481-4.618l-.014-.131c-1.192-11.067-2.543-23.611 1.333-33.594 1.576-4.055 12.433-16.753 18.265-23.575 1.267-1.482 2.362-2.761 3.113-3.661l.034-.04-.3-.25-.034.041c-.762.913-1.905 2.249-3.116 3.664-6.256 7.314-16.724 19.556-18.326 23.679-3.912 10.072-2.555 22.669-1.357 33.782.159 1.483.34 3.163.494 4.74a267.868 267.868 0 0 0 7.7 42.382l.014.051.114-.03a24.761 24.761 0 0 0-.859 12.276c.708 4.372 2.614 9.989 4.3 14.949.744 2.191 1.446 4.261 2.019 6.14l.016.051.13-.04c-.018.043-.039.085-.057.128-2.5 5.835-4.039 12.514-4.842 21.022l-.005.055h.055a1.927 1.927 0 0 1 .274.035l.058.013.006-.06c.8-8.473 2.33-15.119 4.815-20.916 3.269-7.63 8.46-14.27 13.48-20.691l20.8-26.608.033-.041-.308-.24-20.846 26.669c-4.927 6.3-10.014 12.821-13.313 20.3-.552-1.8-1.217-3.76-1.923-5.838l-.048-.145c-1.669-4.92-3.56-10.495-4.262-14.828-1.189-7.351.42-13.868 4.416-17.881 3.726-3.74 9.217-5.109 14.6-6.031a257.324 257.324 0 0 1 33.171-3.007c20.135-.8 42.075-1.175 69.049-1.175 13.514 0 26.941.089 39.925.177l2.85.019c13.817.093 28.1.189 42.331.189 3.159 0 6.081-.005 8.937-.014 3.812-.013 7.622-.035 11.85-.062h.3c5.214-.033 11.124-.07 16.888-.07 7.138 0 15.55.052 24.441.323l-.125.1.032.041c13.35 17.143 29.964 38.478 36.009 61.879 2.291 8.867 3.152 18.094 3.742 26.744.348 5.084.561 10.687.651 17.131v.046l.046.006a1.734 1.734 0 0 1 .277.057l.069.021v-.072c-.089-6.441-.3-12.072-.653-17.215-.593-8.677-1.459-17.93-3.753-26.815a92.819 92.819 0 0 0-4.1-12.15l.142.056.019-.05c.249-.625.863-2.144.863-2.144 2.721-6.732 6.666-16.5 7.68-25.352 2.479-16.3 5.86-46.107 7.35-59.245l.006-.048c.3-2.692.545-4.817.642-5.611a78.063 78.063 0 0 0 .67-14.017c9.615.122 19.25.184 28.843.184 12.323 0 24.741-.1 36.912-.3h.053l-.006-.32c1.5 3.373 1.581 6.814.528 11.327-7.206 30.893-14.66 62.838-26.082 93.054-5.979 15.816-14.9 22.644-30.8 23.564-2.865.167-5.8.189-8.029.189h-1.719c-3.593 0-7.309 0-10.958.286h-.053l.032.388h.052c3.291-.255 6.65-.268 9.9-.281l1.185-.005h1.017c2.6 0 5.627-.014 8.6-.185a44.229 44.229 0 0 0 10.252-1.7c1.127 5.657-3.406 11.159-8.479 13.675-3.9 1.937-8.388 2.184-11.865 2.184-1.6 0-3.233-.059-4.822-.117h-.082c-1.435-.053-2.791-.1-4.148-.111h-.054v.389h.052c1.338.009 2.689.058 4.121.111h.1c1.574.057 3.2.118 4.848.118 3.511 0 8.051-.252 12.027-2.224 5.218-2.589 9.873-8.277 8.681-14.139 9.7-3.057 15.955-9.943 20.513-22 11.425-30.221 18.886-62.188 26.1-93.1v-.014c1.711-7.423.348-12.188-5.226-18.231zm-90.536 64.94c4.472.339 8.8.8 12.592 2.721 6.838 3.463 8.288 10.6 7.377 18.5-.138.906-.274 1.779-.406 2.6l-.008.053h.028c-1.4 8.042-4.825 16.53-7.262 22.56l-.121.3c-.237.585-.46 1.14-.671 1.668-7.708-18.524-20.817-35.389-31.763-49.446 6.596.204 13.444.529 20.234 1.044z" transform="translate(-632.425 -316.929)"/>
        </g>
        <path id="Path_31829" d="M881.914 394.5a5.248 5.248 0 0 1-5.239-5.242v-14.247a5.248 5.248 0 0 1 5.241-5.242l107.533.851a5.249 5.249 0 0 1 5.245 5.242v12.544a5.249 5.249 0 0 1-5.242 5.242l-107.539.851z" class="cls-11" transform="translate(-96.089 -17.028)"/>
        <g id="Group_12218" transform="translate(711.962 488.826)">
            <path id="Path_31830" d="M952.813 675.372v-50.724l.851-62.412" class="cls-11" transform="translate(-830.216 -561.885)"/>
            <path id="Path_31831" d="M862.132 580.977L842.813 630.1v51.433l-5.725-.709V630.1l13.252-32.943" class="cls-11" transform="translate(-796.525 -567.341)"/>
            <path id="Path_31832" d="M910.975 562.457l-10.036 62.255v51.433l-6.62-.709v-50.724l12.293-62.255" class="cls-11" transform="translate(-813.187 -561.95)"/>
            <path id="Path_31833" d="M879.14 562.475l-23.453 62.247v92.121h10.658l2.435-14.178.563 14.178h1.278a4.978 4.978 0 0 0 4.978-4.978v-87.144l8.06-33.826" class="cls-12" transform="translate(-801.94 -561.955)"/>
            <path id="Path_31834" d="M818.369 561.741l-25.027 47.922a68.237 68.237 0 0 0-7.75 31.585v33.981l-5.725 2.127v-35.865a68.232 68.232 0 0 1 7.965-31.992l18.115-34.122" class="cls-11" transform="translate(-779.867 -561.741)"/>
            <path id="Path_31835" d="M824.121 571.431l-18.753 38.924a69.64 69.64 0 0 0-6.9 30.228v47.669a4.978 4.978 0 0 0 4.978 4.978l.38-7.089 3.044 7.089 11.51 1.418V624.68l26.759-62.347" class="cls-12" transform="translate(-785.282 -561.913)"/>
            <path id="Path_31836" d="M920.113 582.505l-5.9 48.048v77.865l19.912 1.418v-79.283l1.052-25.724" class="cls-11" transform="translate(-818.979 -567.786)"/>
        </g>
        <path id="Path_31837" d="M802.484 408.751l-.009-.043-.068-.494-4.458-32.367q16.3-2.847 32.7-4.859l.851-.1" class="cls-11" transform="translate(-73.17 -17.353)"/>
        <path id="Path_31838" d="M1098.813 407.278l.051-.459 3.165-30.81-4.8-.8q-12.393-2.067-24.837-3.659c-.289-.043-.571-.077-.86-.111" class="cls-11" transform="translate(-152.817 -17.514)"/>
        <text id="ACCOUNT" font-family="Comfortaa-Bold, Comfortaa" font-size="10px" font-weight="700" transform="translate(804.338 368.02)">
            <tspan x="0" y="0">ACCOUNT</tspan>
        </text>
        <g id="Group_12219" transform="translate(1030.067 552.371)">
            <rect id="Rectangle_788" width="79.116" height="79.116" class="cls-11" rx="39.558"/>
            <path id="Path_31839" d="M1284.07 690.9l10.669-10.67a6.2 6.2 0 1 1 8.765 8.764l-10.67 10.67" class="cls-11" transform="translate(-1244.757 -659.251)"/>
            <path id="Path_31840" d="M1266.578 708.388l-10.669 10.67a6.2 6.2 0 0 0 8.764 8.764l10.67-10.67" class="cls-11" transform="translate(-1236.029 -667.979)"/>
            <path id="Path_31841" d="M1266.578 699.659l-10.669-10.67a6.2 6.2 0 1 1 8.764-8.764l10.67 10.67" class="cls-11" transform="translate(-1236.029 -659.25)"/>
            <path id="Path_31842" d="M1292.834 708.388l10.67 10.67a6.2 6.2 0 0 1-8.765 8.764l-10.669-10.67" class="cls-11" transform="translate(-1244.757 -667.979)"/>
        </g>
        <g id="Group_12220" transform="translate(580.601 566.834)">
            <rect id="Rectangle_789" width="48.011" height="48.011" class="cls-11" rx="24.005"/>
            <path id="Path_31843" d="M628.213 695.764l6.475-6.475a3.76 3.76 0 1 1 5.318 5.318l-6.475 6.475" class="cls-11" transform="translate(-604.357 -676.56)"/>
            <path id="Path_31844" d="M617.6 706.378l-6.475 6.475a3.761 3.761 0 0 0 5.319 5.319l6.475-6.475" class="cls-11" transform="translate(-599.06 -681.856)"/>
            <path id="Path_31845" d="M617.6 701.081l-6.475-6.475a3.761 3.761 0 1 1 5.319-5.318l6.475 6.475" class="cls-11" transform="translate(-599.06 -676.559)"/>
            <path id="Path_31846" d="M633.531 706.378l6.475 6.475a3.761 3.761 0 1 1-5.318 5.319l-6.475-6.475" class="cls-11" transform="translate(-604.357 -681.856)"/>
        </g>
        <path id="Path_31847" d="M625.923 779.9a4.216 4.216 0 0 1 4.271-3.213 6.343 6.343 0 0 1 4.828 2.874 7.368 7.368 0 0 1 .947 6.8 5.751 5.751 0 0 1-5.6 3.629 5.824 5.824 0 0 1-4.861-4.362 7.789 7.789 0 0 1 1.52-6.55" class="cls-11" transform="translate(-22.906 -135.49)"/>
        <path id="Path_31848" d="M1305.224 787.052c.437-2.574 3.128-4.387 5.737-4.316a8.516 8.516 0 0 1 6.485 3.86 9.893 9.893 0 0 1 1.272 9.135 7.723 7.723 0 0 1-7.527 4.874 7.823 7.823 0 0 1-6.53-5.859 10.463 10.463 0 0 1 2.042-8.8" class="cls-11" transform="translate(-220.605 -137.251)"/>
        <path id="Path_31849" d="M684.865 729.176a2.874 2.874 0 0 1 3.142-3.055 3.064 3.064 0 0 1 2.34 3.8 3.282 3.282 0 0 1-4.09 1.985l-.781-2.778" class="cls-11" transform="translate(-40.242 -120.763)"/>
        <path id="Path_31850" d="M1316.262 619.313a8.062 8.062 0 0 1-.857-3.522 2.211 2.211 0 0 1 .114-.841 2.011 2.011 0 0 1 .531-.714 4.517 4.517 0 0 1 7.563 3.836 2.178 2.178 0 0 1-.4 1.106 2.858 2.858 0 0 1-.812.627c-1.252.742-2.83 1.493-4.078.744" class="cls-11" transform="translate(-223.813 -87.852)"/>
        <path id="Path_31851" d="M1044.359 336.549h18.748l-19.544-19.544v18.748a.809.809 0 0 0 .796.796z" class="cls-12" transform="translate(-144.674 -1.667)"/>
        <g id="Group_12221" transform="translate(646.697 488.826)">
            <path id="Path_31852" d="M958.776 586.127l1.24 45.476v50.724l-7.2-.835" class="cls-11" transform="translate(-764.951 -568.84)"/>
            <path id="Path_31853" d="M1041.252 562.457l25.044 62.255v50.724h-5.725v-50.724l-24.477-62.244" class="cls-11" transform="translate(-789.196 -561.95)"/>
            <path id="Path_31854" d="M1004.126 562.457l12.293 62.255v50.724h-6.62v-50.724l-3.974-24.654" class="cls-11" transform="translate(-779.889 -561.95)"/>
            <path id="Path_31855" d="M1016.123 577.456l11.263 47.265v92.121l19.912-4.962v-87.159l-23.452-62.247" class="cls-11" transform="translate(-783.382 -561.955)"/>
            <path id="Path_31856" d="M1111.027 607.543l6.353 11.967a63.247 63.247 0 0 1 7.384 29.657v34.976h-5.725v-35.2a63.244 63.244 0 0 0-7.185-29.279l-14.255-27.3" class="cls-11" transform="translate(-807.101 -570.657)"/>
            <path id="Path_31857" d="M1174.351 705.912v23.421c0 5.862-1.1 12.313.106 18.027a14.479 14.479 0 0 0 5.479 8.939c4.076 2.871 9.811 2.722 14.2.354h.007" class="cls-11" transform="translate(-829.312 -603.713)"/>
            <path id="Path_31858" d="M1190.022 698.89v2.276a28.969 28.969 0 0 1-32.452 28.674c-.461-.057-.914-.128-1.368-.213a.013.013 0 0 1-.021 0c-14.007-2.431-23.953-15.39-23.953-29.7v-52.438a88.04 88.04 0 0 0-11.073-42.759l-23.556-42.4" class="cls-11" transform="translate(-807.101 -561.913)"/>
            <path id="Path_31859" d="M687.8 712.975v2.368a28.972 28.972 0 0 0 32.459 28.674c.6-.071 1.191-.17 1.772-.284.007.007.007.007.014 0 13.795-2.6 23.549-15.453 23.549-29.631v-66.613a88.046 88.046 0 0 1 11.08-42.759l23.549-42.4" class="cls-11" transform="translate(-687.799 -561.913)"/>
            <path id="Path_31860" d="M733.117 705.912v23.421c0 5.862 1.106 26.491-.1 32.2a14.542 14.542 0 0 1-5.48 8.939c-4.076 2.871-9.8 2.722-14.2.354" class="cls-11" transform="translate(-695.234 -603.713)"/>
            <path id="Path_31861" d="M1068.03 589.489l15.03 35.019v68.549l9.416 2.836 3.451-17.013.364 21.266h6.681v-60.873a64.663 64.663 0 0 0-6.409-28.067l-23.832-49.465" class="cls-12" transform="translate(-798.493 -561.741)"/>
            <path id="Path_31862" d="M968.682 562.236l3.4 62.416v67.94l8.732-.709.884-7.089 1.69 6.38 8.606-.709v-65.813l-7.642-62.259" class="cls-12" transform="translate(-769.571 -561.885)"/>
        </g>
        <path id="Path_31863" d="M960.016 741.906l-7.2 2.127V729.5l7.2 1.418z" class="cls-11" transform="translate(-118.254 -121.753)"/>
        <path id="Path_31864" d="M786.017 755.815l-7.2-2.127v-13.116l7.2-2.127z" class="cls-11" transform="translate(-67.599 -124.358)"/>
        <path id="Path_31865" d="M960.016 766.752h-7.2v-6.558l7.2-.709z" class="cls-11" transform="translate(-118.254 -130.483)"/>
        <path id="Rectangle_790" d="M0 0H7.202V19.296H0z" class="cls-11" transform="translate(917.389 609.163)"/>
        <path id="Rectangle_791" d="M0 0H7.202V6.558H0z" class="cls-11" transform="translate(917.389 635.667)"/>
        <path id="Path_31866" d="M836.548 762.339l7.2-1.418v20.714l-7.2 1.418z" class="cls-11" transform="translate(-84.407 -130.901)"/>
        <path id="Path_31867" d="M836.548 731.5l7.2.709v5.14l-7.2.709z" class="cls-11" transform="translate(-84.407 -122.336)"/>
        <path id="Path_31868" d="M901.019 747.37l-7.2-1.418v-6.558l7.2 1.418z" class="cls-11" transform="translate(-101.079 -124.634)"/>
        <path id="Rectangle_792" d="M0 0H7.202V6.558H0z" class="cls-11" transform="translate(957.157 614.76)"/>
        <path id="Path_31869" d="M687.348 774.8q9.607 1 19.247 1.645c-1.545 8.174-2.535 17.382 3.777 23.907a17.473 17.473 0 0 0 11.7 5.251" class="cls-11" transform="translate(-40.971 -134.941)"/>
        <path id="Path_31870" d="M1214.155 754.935q-9.607 1-19.247 1.645c1.546 8.174 2.535 17.382-3.777 23.907a17.474 17.474 0 0 1-11.7 5.251" class="cls-11" transform="translate(-184.229 -129.159)"/>
        <g id="Group_12222" transform="translate(704.492 580.073)">
            <path id="Line_210" d="M7.464 0L0 0.035" class="cls-11" transform="translate(13.192 1.056)"/>
            <path id="Line_211" d="M7.464 0L0 0.028" class="cls-11" transform="translate(53.754 .886)"/>
            <path id="Line_212" d="M7.486 0L0 0.028" class="cls-11" transform="translate(95.223 .709)"/>
            <path id="Line_213" d="M7.45 0L0 0.035" class="cls-11" transform="translate(137.267 .525)"/>
            <path id="Line_214" d="M7.472 0L0 0.035" class="cls-11" transform="translate(178.736 .347)"/>
            <path id="Line_215" d="M7.464 0L0 0.035" class="cls-11" transform="translate(246.682 .057)"/>
            <path id="Line_216" d="M7.464 0L0 0.035" class="cls-11" transform="translate(259.867)"/>
            <path id="Line_217" d="M7.457 0L0 0.028" class="cls-11" transform="translate(206.12 .234)"/>
            <path id="Line_218" d="M7.464 0L0 0.028" class="cls-11" transform="translate(219.305 .177)"/>
            <path id="Line_219" d="M7.486 0L0 0.028" class="cls-11" transform="translate(164.629 .411)"/>
            <path id="Line_220" d="M7.45 0L0 0.035" class="cls-11" transform="translate(122.614 .588)"/>
            <path id="Line_221" d="M7.472 0L0 0.035" class="cls-11" transform="translate(81.131 .766)"/>
            <path id="Line_222" d="M7.464 0L0 0.028" class="cls-11" transform="translate(40.569 .943)"/>
            <path id="Line_223" d="M7.472 0L0 0.035" class="cls-11" transform="translate(0 1.113)"/>
        </g>
        <g id="Group_12223" transform="translate(704.492 575.82)">
            <path id="Line_224" d="M7.464 0L0 0.035" class="cls-11" transform="translate(13.192 1.056)"/>
            <path id="Line_225" d="M7.464 0L0 0.028" class="cls-11" transform="translate(53.754 .886)"/>
            <path id="Line_226" d="M7.486 0L0 0.028" class="cls-11" transform="translate(95.223 .709)"/>
            <path id="Line_227" d="M7.45 0L0 0.035" class="cls-11" transform="translate(137.267 .525)"/>
            <path id="Line_228" d="M7.472 0L0 0.035" class="cls-11" transform="translate(178.736 .347)"/>
            <path id="Line_229" d="M7.464 0L0 0.035" class="cls-11" transform="translate(246.682 .057)"/>
            <path id="Line_230" d="M7.464 0L0 0.035" class="cls-11" transform="translate(259.867)"/>
            <path id="Line_231" d="M7.457 0L0 0.028" class="cls-11" transform="translate(206.12 .234)"/>
            <path id="Line_232" d="M7.464 0L0 0.028" class="cls-11" transform="translate(219.305 .177)"/>
            <path id="Line_233" d="M7.486 0L0 0.028" class="cls-11" transform="translate(164.629 .411)"/>
            <path id="Line_234" d="M7.45 0L0 0.035" class="cls-11" transform="translate(122.614 .588)"/>
            <path id="Line_235" d="M7.472 0L0 0.035" class="cls-11" transform="translate(81.131 .766)"/>
            <path id="Line_236" d="M7.464 0L0 0.028" class="cls-11" transform="translate(40.569 .943)"/>
            <path id="Line_237" d="M7.472 0L0 0.035" class="cls-11" transform="translate(0 1.113)"/>
        </g>
        <path id="Line_238" d="M0 0L75.601 0" class="cls-11" transform="translate(1054.765 514.875)"/>
        <path id="Line_239" d="M0 0L47.805 0" class="cls-11" transform="translate(570.769 514.875)"/>
        <path id="Line_240" d="M0 0L15.039 0" class="cls-11" transform="translate(546.614 514.875)"/>
    </g>
</svg>
