{
 "autoname": "field:company",
 "creation": "2020-06-22 15:02:29.438290",
 "doctype": "DocType",
 "editable_grid": 1,
 "engine": "InnoDB",
 "field_order": [
  "company",
  "column_break_2",
  "title",
  "section_break_4",
  "contents",
  "is_default"
 ],
 "fields": [
  {
   "fieldname": "company",
   "fieldtype": "Link",
   "in_list_view": 1,
   "label": "Company",
   "options": "Company",
   "reqd": 1,
   "unique": 1
  },
  {
   "fieldname": "column_break_2",
   "fieldtype": "Column Break"
  },
  {
   "fieldname": "title",
   "fieldtype": "Small Text",
   "in_list_view": 1,
   "label": "Title",
   "reqd": 1
  },
  {
   "fieldname": "section_break_4",
   "fieldtype": "Section Break"
  },
  {
   "default": "0",
   "fieldname": "is_default",
   "fieldtype": "Check",
   "label": "Is Default"
  },
  {
   "fieldname": "contents",
   "fieldtype": "Text Editor",
   "label": "Contents"
  }
 ],
 "modified": "2020-06-22 15:40:28.530761",
 "modified_by": "Administrator",
 "module": "Client Portal",
 "name": "T and C",
 "owner": "Administrator",
 "permissions": [
  {
   "create": 1,
   "delete": 1,
   "email": 1,
   "export": 1,
   "print": 1,
   "read": 1,
   "report": 1,
   "role": "System Manager",
   "share": 1,
   "write": 1
  }
 ],
 "quick_entry": 1,
 "sort_field": "modified",
 "sort_order": "DESC",
 "track_changes": 1
}
