{
 "creation": "2020-07-29 15:24:23.614815",
 "doctype": "DocType",
 "editable_grid": 1,
 "engine": "InnoDB",
 "field_order": [
  "email"
 ],
 "fields": [
  {
   "fieldname": "email",
   "fieldtype": "Data",
   "in_list_view": 1,
   "label": "Email",
   "options": "Email",
   "reqd": 1
  }
 ],
 "istable": 1,
 "modified": "2020-07-29 15:24:23.614815",
 "modified_by": "Administrator",
 "module": "Client Portal",
 "name": "Portal Contact Us Settings Email",
 "owner": "Administrator",
 "permissions": [],
 "quick_entry": 1,
 "sort_field": "modified",
 "sort_order": "DESC",
 "track_changes": 1
}
